<?xml version="1.0" encoding="utf-8"?>
<!DOCTYPE eagle SYSTEM "eagle.dtd">
<eagle version="9.5.2">
<drawing>
<settings>
<setting alwaysvectorfont="no"/>
<setting keepoldvectorfont="yes"/>
<setting verticaltext="up"/>
</settings>
<grid distance="50" unitdist="mil" unit="mil" style="lines" multiple="1" display="yes" altdistance="5" altunitdist="mil" altunit="mil"/>
<layers>
<layer number="1" name="Top" color="4" fill="1" visible="yes" active="yes"/>
<layer number="2" name="Route2" color="1" fill="3" visible="no" active="yes"/>
<layer number="3" name="Route3" color="4" fill="3" visible="no" active="yes"/>
<layer number="4" name="Route4" color="1" fill="4" visible="no" active="yes"/>
<layer number="5" name="Route5" color="4" fill="4" visible="no" active="yes"/>
<layer number="6" name="Route6" color="1" fill="8" visible="no" active="yes"/>
<layer number="7" name="Route7" color="4" fill="8" visible="no" active="yes"/>
<layer number="8" name="Route8" color="1" fill="2" visible="no" active="yes"/>
<layer number="9" name="Route9" color="4" fill="2" visible="no" active="yes"/>
<layer number="10" name="Route10" color="1" fill="7" visible="no" active="yes"/>
<layer number="11" name="Route11" color="4" fill="7" visible="no" active="yes"/>
<layer number="12" name="Route12" color="1" fill="5" visible="no" active="yes"/>
<layer number="13" name="Route13" color="4" fill="5" visible="no" active="yes"/>
<layer number="14" name="Route14" color="1" fill="6" visible="no" active="yes"/>
<layer number="15" name="Route15" color="4" fill="6" visible="no" active="yes"/>
<layer number="16" name="Bottom" color="1" fill="1" visible="yes" active="yes"/>
<layer number="17" name="Pads" color="2" fill="1" visible="yes" active="yes"/>
<layer number="18" name="Vias" color="2" fill="1" visible="yes" active="yes"/>
<layer number="19" name="Unrouted" color="6" fill="1" visible="yes" active="yes"/>
<layer number="20" name="Dimension" color="15" fill="1" visible="yes" active="yes"/>
<layer number="21" name="tPlace" color="7" fill="1" visible="yes" active="yes"/>
<layer number="22" name="bPlace" color="7" fill="1" visible="yes" active="yes"/>
<layer number="23" name="tOrigins" color="15" fill="1" visible="yes" active="yes"/>
<layer number="24" name="bOrigins" color="15" fill="1" visible="yes" active="yes"/>
<layer number="25" name="tNames" color="7" fill="1" visible="yes" active="yes"/>
<layer number="26" name="bNames" color="7" fill="1" visible="yes" active="yes"/>
<layer number="27" name="tValues" color="7" fill="1" visible="yes" active="yes"/>
<layer number="28" name="bValues" color="7" fill="1" visible="yes" active="yes"/>
<layer number="29" name="tStop" color="7" fill="3" visible="no" active="yes"/>
<layer number="30" name="bStop" color="7" fill="6" visible="no" active="yes"/>
<layer number="31" name="tCream" color="7" fill="4" visible="no" active="yes"/>
<layer number="32" name="bCream" color="7" fill="5" visible="no" active="yes"/>
<layer number="33" name="tFinish" color="6" fill="3" visible="no" active="yes"/>
<layer number="34" name="bFinish" color="6" fill="6" visible="no" active="yes"/>
<layer number="35" name="tGlue" color="7" fill="4" visible="no" active="yes"/>
<layer number="36" name="bGlue" color="7" fill="5" visible="no" active="yes"/>
<layer number="37" name="tTest" color="7" fill="1" visible="no" active="yes"/>
<layer number="38" name="bTest" color="7" fill="1" visible="no" active="yes"/>
<layer number="39" name="tKeepout" color="4" fill="11" visible="yes" active="yes"/>
<layer number="40" name="bKeepout" color="1" fill="11" visible="yes" active="yes"/>
<layer number="41" name="tRestrict" color="4" fill="10" visible="yes" active="yes"/>
<layer number="42" name="bRestrict" color="1" fill="10" visible="yes" active="yes"/>
<layer number="43" name="vRestrict" color="2" fill="10" visible="yes" active="yes"/>
<layer number="44" name="Drills" color="7" fill="1" visible="no" active="yes"/>
<layer number="45" name="Holes" color="7" fill="1" visible="yes" active="yes"/>
<layer number="46" name="Milling" color="3" fill="1" visible="no" active="yes"/>
<layer number="47" name="Measures" color="7" fill="1" visible="no" active="yes"/>
<layer number="48" name="Document" color="7" fill="1" visible="yes" active="yes"/>
<layer number="49" name="Reference" color="7" fill="1" visible="yes" active="yes"/>
<layer number="51" name="tDocu" color="7" fill="1" visible="yes" active="yes"/>
<layer number="52" name="bDocu" color="7" fill="1" visible="yes" active="yes"/>
<layer number="91" name="Nets" color="2" fill="1" visible="yes" active="yes"/>
<layer number="92" name="Busses" color="1" fill="1" visible="yes" active="yes"/>
<layer number="93" name="Pins" color="2" fill="1" visible="yes" active="yes"/>
<layer number="94" name="Symbols" color="4" fill="1" visible="yes" active="yes"/>
<layer number="95" name="Names" color="7" fill="1" visible="yes" active="yes"/>
<layer number="96" name="Values" color="7" fill="1" visible="yes" active="yes"/>
<layer number="97" name="Info" color="7" fill="1" visible="yes" active="yes"/>
<layer number="98" name="Guide" color="6" fill="1" visible="yes" active="yes"/>
</layers>
<library>
<packages>
<package name="GL850G">
<smd name="1" x="-98.3996" y="34.3408" dx="0.6096" dy="0.3048" layer="1" roundness="4" rot="R90"/>
<smd name="2" x="-97.7392" y="34.3408" dx="0.6096" dy="0.3048" layer="1" roundness="4" rot="R90"/>
<smd name="3" x="-97.0788" y="34.3408" dx="0.6096" dy="0.3048" layer="1" roundness="4" rot="R90"/>
<smd name="4" x="-96.4184" y="34.3408" dx="0.6096" dy="0.3048" layer="1" roundness="4" rot="R90"/>
<smd name="5" x="-95.758" y="34.3408" dx="0.6096" dy="0.3048" layer="1" roundness="4" rot="R90"/>
<smd name="6" x="-95.0976" y="34.3408" dx="0.6096" dy="0.3048" layer="1" roundness="4" rot="R90"/>
<smd name="7" x="-94.4372" y="34.3408" dx="0.6096" dy="0.3048" layer="1" roundness="4" rot="R90"/>
<smd name="8" x="-93.7768" y="34.3408" dx="0.6096" dy="0.3048" layer="1" roundness="4" rot="R90"/>
<smd name="9" x="-93.1164" y="34.3408" dx="0.6096" dy="0.3048" layer="1" roundness="4" rot="R90"/>
<smd name="10" x="-92.456" y="34.3408" dx="0.6096" dy="0.3048" layer="1" roundness="4" rot="R90"/>
<smd name="11" x="-91.7956" y="34.3408" dx="0.6096" dy="0.3048" layer="1" roundness="4" rot="R90"/>
<smd name="12" x="-91.1352" y="34.3408" dx="0.6096" dy="0.3048" layer="1" roundness="4" rot="R90"/>
<smd name="13" x="-90.4748" y="34.3408" dx="0.6096" dy="0.3048" layer="1" roundness="4" rot="R90"/>
<smd name="14" x="-89.8144" y="34.3408" dx="0.6096" dy="0.3048" layer="1" roundness="4" rot="R90"/>
<smd name="15" x="-89.8144" y="41.6052" dx="0.6096" dy="0.3048" layer="1" roundness="4" rot="R90"/>
<smd name="16" x="-90.4748" y="41.6052" dx="0.6096" dy="0.3048" layer="1" roundness="4" rot="R90"/>
<smd name="17" x="-91.1352" y="41.6052" dx="0.6096" dy="0.3048" layer="1" roundness="4" rot="R90"/>
<smd name="18" x="-91.7956" y="41.6052" dx="0.6096" dy="0.3048" layer="1" roundness="4" rot="R90"/>
<smd name="19" x="-92.456" y="41.6052" dx="0.6096" dy="0.3048" layer="1" roundness="4" rot="R90"/>
<smd name="20" x="-93.1164" y="41.6052" dx="0.6096" dy="0.3048" layer="1" roundness="4" rot="R90"/>
<smd name="21" x="-93.7768" y="41.6052" dx="0.6096" dy="0.3048" layer="1" roundness="4" rot="R90"/>
<smd name="22" x="-94.4372" y="41.6052" dx="0.6096" dy="0.3048" layer="1" roundness="4" rot="R90"/>
<smd name="23" x="-95.0976" y="41.6052" dx="0.6096" dy="0.3048" layer="1" roundness="4" rot="R90"/>
<smd name="24" x="-95.758" y="41.6052" dx="0.6096" dy="0.3048" layer="1" roundness="4" rot="R90"/>
<smd name="25" x="-96.4184" y="41.6052" dx="0.6096" dy="0.3048" layer="1" roundness="4" rot="R90"/>
<smd name="26" x="-97.0788" y="41.6052" dx="0.6096" dy="0.3048" layer="1" roundness="4" rot="R90"/>
<smd name="27" x="-97.7392" y="41.6052" dx="0.6096" dy="0.3048" layer="1" roundness="4" rot="R90"/>
<smd name="28" x="-98.3996" y="41.6052" dx="0.6096" dy="0.3048" layer="1" roundness="4" rot="R90"/>
<wire x1="-89.154" y1="35.3314" x2="-99.06" y2="35.3314" width="0.127" layer="21"/>
<wire x1="-99.06" y1="35.3314" x2="-99.06" y2="40.6146" width="0.127" layer="21"/>
<wire x1="-99.06" y1="40.6146" x2="-89.154" y2="40.6146" width="0.127" layer="22"/>
<wire x1="-89.154" y1="40.6146" x2="-89.154" y2="35.3314" width="0.127" layer="21"/>
<text x="-98.044" y="36.9316" size="1.016" layer="27">&gt;VALUE</text>
<text x="-97.7138" y="38.7858" size="1.016" layer="25">&gt;NAME</text>
<wire x1="-99.06" y1="38.735" x2="-99.06" y2="37.465" width="0.127" layer="22" curve="-180"/>
</package>
<package name="UEI15-050-Q12">
<pad name="1" x="0" y="5.08" drill="1.1" shape="long"/>
<pad name="2" x="0" y="0" drill="1.1" shape="long"/>
<pad name="3" x="-20.32" y="10.16" drill="1.1" shape="long"/>
<pad name="4" x="-20.32" y="2.54" drill="1.1" shape="long"/>
<pad name="5" x="-20.32" y="-5.08" drill="1.1" shape="long"/>
<pad name="6" x="0" y="-5.08" drill="1.1" shape="long"/>
<wire x1="3.24" y1="13.05" x2="3.24" y2="-8.12" width="0.127" layer="21"/>
<wire x1="3.24" y1="-8.12" x2="-23.56" y2="-8.12" width="0.127" layer="21"/>
<wire x1="-23.56" y1="-8.12" x2="-23.56" y2="13.05" width="0.127" layer="21"/>
<text x="-22.86" y="-10.16" size="1.27" layer="21">&gt;VALUE</text>
<text x="-22.86" y="13.97" size="1.27" layer="21">&gt;NAME</text>
<text x="-16.49" y="2.44" size="1.27" layer="21">UEI15-050-Q12</text>
<text x="-16.51" y="10.16" size="1.27" layer="21">IN 9-36V Out 5V 15W</text>
<text x="-1.27" y="6.35" size="1.27" layer="21">1</text>
<text x="-1.27" y="1.27" size="1.27" layer="21">2</text>
<text x="-19.05" y="11.43" size="1.27" layer="21">3</text>
<text x="-19.05" y="3.81" size="1.27" layer="21">4</text>
<text x="-19.05" y="-3.81" size="1.27" layer="21">5</text>
<text x="-1.27" y="-3.81" size="1.27" layer="21">6</text>
<wire x1="-23.56" y1="13.05" x2="3.24" y2="13.05" width="0.127" layer="21"/>
</package>
<package name="MPE-004">
<pad name="2" x="0" y="2.54" drill="0.8" rot="R90"/>
<pad name="4" x="2.54" y="2.54" drill="0.8" rot="R90"/>
<pad name="1" x="0" y="0" drill="0.8" rot="R90"/>
<pad name="3" x="2.54" y="0" drill="0.8" rot="R90"/>
<wire x1="-1.27" y1="3.81" x2="0.635" y2="3.81" width="0.127" layer="21"/>
<wire x1="1.905" y1="3.81" x2="3.81" y2="3.81" width="0.127" layer="21"/>
<wire x1="3.81" y1="-1.27" x2="1.905" y2="-1.27" width="0.127" layer="21"/>
<wire x1="0.635" y1="-1.27" x2="-1.27" y2="-1.27" width="0.127" layer="21"/>
<wire x1="-1.27" y1="3.81" x2="-1.27" y2="-1.27" width="0.127" layer="21"/>
<wire x1="3.81" y1="3.81" x2="3.81" y2="-1.27" width="0.127" layer="21"/>
<rectangle x1="-1.27" y1="-1.27" x2="-0.635" y2="-0.635" layer="21"/>
<text x="-1.27" y="4.445" size="0.4064" layer="21">&gt;NAME</text>
<text x="0" y="-2.54" size="0.4064" layer="21">&gt;VALUE</text>
<wire x1="0.635" y1="3.81" x2="1.27" y2="3.175" width="0.127" layer="21"/>
<wire x1="1.27" y1="3.175" x2="1.905" y2="3.81" width="0.127" layer="21"/>
<wire x1="0.635" y1="-1.27" x2="1.27" y2="-0.635" width="0.127" layer="21"/>
<wire x1="1.27" y1="-0.635" x2="1.905" y2="-1.27" width="0.127" layer="21"/>
<text x="-1.27" y="-2.54" size="1.016" layer="21">1</text>
<text x="2.54" y="3.81" size="1.016" layer="21">4</text>
</package>
<package name="MPE-014">
<pad name="1" x="-10.16" y="-2.54" drill="0.8"/>
<pad name="2" x="-10.16" y="0" drill="0.8"/>
<pad name="3" x="-7.62" y="-2.54" drill="0.8"/>
<pad name="4" x="-7.62" y="0" drill="0.8"/>
<pad name="5" x="-5.08" y="-2.54" drill="0.8"/>
<pad name="6" x="-5.08" y="0" drill="0.8"/>
<pad name="7" x="-2.54" y="-2.54" drill="0.8"/>
<pad name="8" x="-2.54" y="0" drill="0.8"/>
<pad name="9" x="0" y="-2.54" drill="0.8"/>
<pad name="10" x="0" y="0" drill="0.8"/>
<pad name="11" x="2.54" y="-2.54" drill="0.8"/>
<pad name="12" x="2.54" y="0" drill="0.8"/>
<pad name="13" x="5.08" y="-2.54" drill="0.8"/>
<pad name="14" x="5.08" y="0" drill="0.8"/>
<pad name="15" x="7.62" y="-2.54" drill="0.8"/>
<pad name="16" x="7.62" y="0" drill="0.8"/>
<pad name="17" x="10.16" y="-2.54" drill="0.8"/>
<pad name="18" x="10.16" y="0" drill="0.8"/>
<pad name="19" x="12.7" y="-2.54" drill="0.8"/>
<pad name="20" x="12.7" y="0" drill="0.8"/>
<pad name="21" x="15.24" y="-2.54" drill="0.8"/>
<pad name="22" x="15.24" y="0" drill="0.8"/>
<pad name="23" x="17.78" y="-2.54" drill="0.8"/>
<pad name="24" x="17.78" y="0" drill="0.8"/>
<pad name="25" x="20.32" y="-2.54" drill="0.8"/>
<pad name="26" x="20.32" y="0" drill="0.8"/>
<pad name="27" x="22.86" y="-2.54" drill="0.8"/>
<pad name="28" x="22.86" y="0" drill="0.8"/>
<wire x1="-11.43" y1="1.27" x2="24.13" y2="1.27" width="0.127" layer="21"/>
<wire x1="24.13" y1="1.27" x2="24.13" y2="-3.81" width="0.127" layer="21"/>
<wire x1="24.13" y1="-3.81" x2="-11.43" y2="-3.81" width="0.127" layer="21"/>
<wire x1="-11.43" y1="-3.81" x2="-11.43" y2="1.27" width="0.127" layer="21"/>
<text x="-10.16" y="2.54" size="1.27" layer="25">&gt;NAME</text>
<text x="-10.16" y="-6.35" size="1.27" layer="27">&gt;VALUE</text>
</package>
<package name="ETAL-P5122">
<pad name="1" x="-5.08" y="-2.54" drill="1"/>
<pad name="2" x="2.54" y="-2.54" drill="1"/>
<pad name="4" x="-5.08" y="10.16" drill="1"/>
<pad name="3" x="2.54" y="10.16" drill="1"/>
<wire x1="-5.08" y1="8.89" x2="-5.08" y2="6.35" width="0.127" layer="21"/>
<wire x1="-5.08" y1="-1.27" x2="-5.08" y2="1.27" width="0.127" layer="21"/>
<wire x1="2.54" y1="8.89" x2="2.54" y2="6.35" width="0.127" layer="21"/>
<wire x1="2.54" y1="1.27" x2="2.54" y2="-1.27" width="0.127" layer="21"/>
<wire x1="-5.08" y1="1.27" x2="-2.54" y2="1.27" width="0.127" layer="21" curve="-180"/>
<wire x1="-2.54" y1="1.27" x2="0" y2="1.27" width="0.127" layer="21" curve="-180"/>
<wire x1="0" y1="1.27" x2="2.54" y2="1.27" width="0.127" layer="21" curve="-180"/>
<wire x1="-5.08" y1="6.35" x2="-2.54" y2="6.35" width="0.127" layer="21" curve="180"/>
<wire x1="-2.54" y1="6.35" x2="0" y2="6.35" width="0.127" layer="21" curve="180"/>
<wire x1="0" y1="6.35" x2="2.54" y2="6.35" width="0.127" layer="21" curve="180"/>
<text x="-6.35" y="0" size="1.27" layer="21" rot="R90">600Ohm 1:1</text>
<text x="5.08" y="0" size="1.27" layer="21" rot="R90">ETAL-P5122</text>
<wire x1="-10.16" y1="12.7" x2="7.62" y2="12.7" width="0.127" layer="21"/>
<wire x1="7.62" y1="12.7" x2="7.62" y2="-5.08" width="0.127" layer="21"/>
<wire x1="7.62" y1="-5.08" x2="-10.16" y2="-5.08" width="0.127" layer="21"/>
<wire x1="-10.16" y1="-5.08" x2="-10.16" y2="12.7" width="0.127" layer="21"/>
<text x="-10.16" y="13.97" size="1.27" layer="25">&gt;NAME</text>
<text x="-10.16" y="-7.62" size="1.27" layer="27">&gt;VALUE</text>
</package>
<package name="MPE-008">
<pad name="2" x="-5.08" y="2.54" drill="0.8"/>
<pad name="4" x="-2.54" y="2.54" drill="0.8"/>
<pad name="6" x="0" y="2.54" drill="0.8"/>
<pad name="8" x="2.54" y="2.54" drill="0.8"/>
<pad name="1" x="-5.08" y="0" drill="0.8"/>
<pad name="3" x="-2.54" y="0" drill="0.8"/>
<pad name="5" x="0" y="0" drill="0.8"/>
<pad name="7" x="2.54" y="0" drill="0.8"/>
<wire x1="-6.35" y1="-1.27" x2="-6.35" y2="3.81" width="0.127" layer="21"/>
<wire x1="-6.35" y1="3.81" x2="3.81" y2="3.81" width="0.127" layer="21"/>
<wire x1="3.81" y1="3.81" x2="3.81" y2="-1.27" width="0.127" layer="21"/>
<wire x1="3.81" y1="-1.27" x2="-6.35" y2="-1.27" width="0.127" layer="21"/>
<text x="-6.35" y="4.445" size="1.27" layer="21">&gt;NAME</text>
<text x="-6.35" y="-3.175" size="1.27" layer="21">&gt;VALUE</text>
<text x="-7.62" y="-1.27" size="1.27" layer="21">1</text>
<text x="4.445" y="2.54" size="1.27" layer="21">8</text>
</package>
<package name="MP-010">
<pad name="2" x="-2.54" y="2.54" drill="0.8"/>
<pad name="4" x="0" y="2.54" drill="0.8"/>
<pad name="6" x="2.54" y="2.54" drill="0.8"/>
<pad name="8" x="5.08" y="2.54" drill="0.8"/>
<pad name="10" x="7.62" y="2.54" drill="0.8"/>
<pad name="9" x="7.62" y="0" drill="0.8"/>
<pad name="7" x="5.08" y="0" drill="0.8"/>
<pad name="5" x="2.54" y="0" drill="0.8"/>
<pad name="3" x="0" y="0" drill="0.8"/>
<pad name="1" x="-2.54" y="0" drill="0.8"/>
<wire x1="-3.81" y1="3.81" x2="8.89" y2="3.81" width="0.127" layer="21"/>
<wire x1="8.89" y1="3.81" x2="8.89" y2="-1.27" width="0.127" layer="21"/>
<wire x1="8.89" y1="-1.27" x2="-3.81" y2="-1.27" width="0.127" layer="21"/>
<wire x1="-3.81" y1="-1.27" x2="-3.81" y2="3.81" width="0.127" layer="21"/>
<text x="-3.81" y="4.445" size="1.27" layer="21">&gt;NAME</text>
<text x="-3.81" y="-3.175" size="1.27" layer="21">&gt;VALUE</text>
<text x="-5.08" y="-2.54" size="1.27" layer="21">1</text>
<text x="9.525" y="3.175" size="1.27" layer="21">10</text>
</package>
<package name="ETAL-P1200">
<pad name="1" x="-5.08" y="-2.54" drill="1"/>
<pad name="2" x="2.54" y="-2.54" drill="1"/>
<pad name="4" x="-5.08" y="10.16" drill="1"/>
<pad name="3" x="2.54" y="10.16" drill="1"/>
<wire x1="-5.08" y1="8.89" x2="-5.08" y2="6.35" width="0.127" layer="21"/>
<wire x1="-5.08" y1="-1.27" x2="-5.08" y2="1.27" width="0.127" layer="21"/>
<wire x1="2.54" y1="8.89" x2="2.54" y2="6.35" width="0.127" layer="21"/>
<wire x1="2.54" y1="1.27" x2="2.54" y2="-1.27" width="0.127" layer="21"/>
<wire x1="-5.08" y1="1.27" x2="-2.54" y2="1.27" width="0.127" layer="21" curve="-180"/>
<wire x1="-2.54" y1="1.27" x2="0" y2="1.27" width="0.127" layer="21" curve="-180"/>
<wire x1="0" y1="1.27" x2="2.54" y2="1.27" width="0.127" layer="21" curve="-180"/>
<wire x1="-5.08" y1="6.35" x2="-2.54" y2="6.35" width="0.127" layer="21" curve="180"/>
<wire x1="-2.54" y1="6.35" x2="0" y2="6.35" width="0.127" layer="21" curve="180"/>
<wire x1="0" y1="6.35" x2="2.54" y2="6.35" width="0.127" layer="21" curve="180"/>
<text x="-6.35" y="0" size="1.27" layer="21" rot="R90">600Ohm 1:1</text>
<text x="5.08" y="0" size="1.27" layer="21" rot="R90">ETAL-P1200</text>
<wire x1="-10.16" y1="12.7" x2="7.62" y2="12.7" width="0.127" layer="21"/>
<wire x1="7.62" y1="12.7" x2="7.62" y2="-5.08" width="0.127" layer="21"/>
<wire x1="7.62" y1="-5.08" x2="-10.16" y2="-5.08" width="0.127" layer="21"/>
<wire x1="-10.16" y1="-5.08" x2="-10.16" y2="12.7" width="0.127" layer="21"/>
<text x="-10.16" y="13.97" size="1.27" layer="25">&gt;NAME</text>
<text x="-10.16" y="-7.62" size="1.27" layer="27">&gt;VALUE</text>
</package>
<package name="SCHRAUBKLEMME-PCB-12M4">
<pad name="3" x="-2.5" y="5" drill="1.5" diameter="3" shape="octagon" rot="R90"/>
<pad name="1" x="-2.5" y="0.5" drill="1.5" diameter="3.048" shape="octagon" rot="R270"/>
<pad name="4" x="5" y="5" drill="1.5" diameter="3.048" shape="octagon" rot="R90"/>
<pad name="2" x="5" y="0.5" drill="1.5" diameter="3.048" shape="octagon" rot="R270"/>
<text x="-2.7554" y="7.5174" size="1.27" layer="25">&gt;NAME</text>
<text x="-2.5332" y="-6.8" size="1.27" layer="27">&gt;VALUE</text>
<text x="-1.6444" y="2.222" size="1.27" layer="21">KY(M4)</text>
<text x="0.0508" y="-4.41325" size="1.27" layer="21">M4</text>
<wire x1="-2.75" y1="6.881" x2="5.25" y2="6.881" width="0.127" layer="21"/>
<wire x1="-2.75" y1="-4.619" x2="5.25" y2="-4.619" width="0.127" layer="21"/>
<wire x1="5.27685" y1="6.86435" x2="5.27685" y2="-4.61645" width="0.127" layer="21"/>
<wire x1="-2.74955" y1="-4.61645" x2="-2.74955" y2="6.87705" width="0.127" layer="21"/>
<wire x1="-0.75565" y1="-4.6228" x2="-0.75565" y2="-2.6228" width="0.127" layer="21"/>
<wire x1="-0.75565" y1="-2.6228" x2="3.24435" y2="-2.6228" width="0.127" layer="21"/>
<wire x1="3.24435" y1="-2.6228" x2="3.24435" y2="-4.6228" width="0.127" layer="21"/>
<wire x1="3.24435" y1="-4.6228" x2="-0.75565" y2="-4.6228" width="0.127" layer="21"/>
<wire x1="-0.762" y1="-2.921" x2="3.175" y2="-2.921" width="0.127" layer="21"/>
<wire x1="-0.7366" y1="-3.3274" x2="-0.1016" y2="-3.3274" width="0.127" layer="21"/>
<wire x1="-0.7366" y1="-3.683" x2="-0.3556" y2="-3.683" width="0.127" layer="21"/>
<wire x1="-0.7366" y1="-4.064" x2="-0.4826" y2="-4.064" width="0.127" layer="21"/>
<wire x1="-0.7366" y1="-4.445" x2="-0.6096" y2="-4.445" width="0.127" layer="21"/>
<wire x1="3.175" y1="-3.302" x2="2.667" y2="-3.302" width="0.127" layer="21"/>
<wire x1="3.175" y1="-3.683" x2="2.921" y2="-3.683" width="0.127" layer="21"/>
<wire x1="3.175" y1="-4.064" x2="3.048" y2="-4.064" width="0.127" layer="21"/>
<wire x1="3.175" y1="-4.445" x2="3.048" y2="-4.445" width="0.127" layer="21"/>
</package>
<package name="RJ45-MEBP8-8G">
<pad name="1" x="-3.81" y="0" drill="0.9" diameter="1.4224"/>
<pad name="3" x="-1.27" y="0" drill="0.9" diameter="1.4224"/>
<pad name="5" x="1.27" y="0" drill="0.9" diameter="1.4224"/>
<pad name="7" x="3.81" y="0" drill="0.9" diameter="1.4224"/>
<pad name="2" x="-2.54" y="-2.54" drill="0.9" diameter="1.4224"/>
<pad name="4" x="0" y="-2.54" drill="0.9" diameter="1.4224"/>
<pad name="6" x="2.54" y="-2.54" drill="0.9" diameter="1.4224"/>
<pad name="8" x="5.08" y="-2.54" drill="0.9" diameter="1.4224"/>
<hole x="6.35" y="-8.89" drill="3.25"/>
<hole x="-5.08" y="-8.89" drill="3.25"/>
<pad name="G1" x="-7.112" y="-5.842" drill="1.6" diameter="1.778"/>
<pad name="G2" x="8.382" y="-5.842" drill="1.6" diameter="1.778"/>
<text x="-5.08" y="-1.27" size="0.8128" layer="21">1</text>
<text x="-3.81" y="-3.81" size="0.8128" layer="21">2</text>
<text x="-2.54" y="-1.27" size="0.8128" layer="21">3</text>
<text x="-1.27" y="-3.81" size="0.8128" layer="21">4</text>
<text x="0" y="-1.27" size="0.8128" layer="21">5</text>
<text x="1.27" y="-3.81" size="0.8128" layer="21">6</text>
<text x="2.54" y="-1.27" size="0.8128" layer="21">7</text>
<text x="3.81" y="-3.81" size="0.8128" layer="21">8</text>
<wire x1="8.636" y1="1.778" x2="8.636" y2="-19.685" width="0.127" layer="21"/>
<wire x1="8.636" y1="-19.685" x2="-7.239" y2="-19.685" width="0.127" layer="21"/>
<wire x1="-7.239" y1="-19.685" x2="-7.239" y2="1.778" width="0.127" layer="21"/>
<wire x1="-7.239" y1="1.778" x2="8.636" y2="1.778" width="0.127" layer="21"/>
<text x="-2.032" y="-9.652" size="1.6764" layer="21">RJ45</text>
<text x="-4.445" y="-14.986" size="1.6764" layer="21">MEBP 8/8</text>
<text x="-7.62" y="2.54" size="1.6764" layer="21">&gt;NAME</text>
<text x="-7.62" y="-21.844" size="1.6764" layer="21">&gt;VALUE</text>
</package>
</packages>
<symbols>
<symbol name="GL850G">
<pin name="AVDD1" x="-27.94" y="15.24" length="middle"/>
<pin name="USB2_D-" x="-27.94" y="12.7" length="middle"/>
<pin name="USB2_D+" x="-27.94" y="10.16" length="middle"/>
<pin name="RREF" x="-27.94" y="7.62" length="middle"/>
<pin name="AVDD2" x="-27.94" y="5.08" length="middle"/>
<pin name="X1" x="-27.94" y="2.54" length="middle"/>
<pin name="X2" x="-27.94" y="0" length="middle"/>
<pin name="USB3_D-" x="-27.94" y="-2.54" length="middle"/>
<pin name="USB3_D+" x="-27.94" y="-5.08" length="middle"/>
<pin name="AVDD3" x="-27.94" y="-7.62" length="middle"/>
<pin name="USB4_D-" x="-27.94" y="-10.16" length="middle"/>
<pin name="USB4_D+" x="-27.94" y="-12.7" length="middle"/>
<pin name="RESET" x="-27.94" y="-15.24" length="middle"/>
<pin name="TEST/SCL" x="-27.94" y="-17.78" length="middle"/>
<pin name="GND" x="10.16" y="-17.78" length="middle" rot="R180"/>
<pin name="DVDD" x="10.16" y="-15.24" length="middle" rot="R180"/>
<pin name="PSELF" x="10.16" y="-12.7" length="middle" rot="R180"/>
<pin name="PGANG" x="10.16" y="-10.16" length="middle" rot="R180"/>
<pin name="OVCUR2#" x="10.16" y="-7.62" length="middle" rot="R180"/>
<pin name="PWREN2#" x="10.16" y="-5.08" length="middle" rot="R180"/>
<pin name="OVCUR1#" x="10.16" y="-2.54" length="middle" rot="R180"/>
<pin name="PWREN1#" x="10.16" y="0" length="middle" rot="R180"/>
<pin name="5V" x="10.16" y="2.54" length="middle" rot="R180"/>
<pin name="V33" x="10.16" y="5.08" length="middle" rot="R180"/>
<pin name="USB-IN-" x="10.16" y="7.62" length="middle" rot="R180"/>
<pin name="USB-IN+" x="10.16" y="10.16" length="middle" rot="R180"/>
<pin name="USB1_D-" x="10.16" y="12.7" length="middle" rot="R180"/>
<pin name="USB1_D+" x="10.16" y="15.24" length="middle" rot="R180"/>
<wire x1="5.08" y1="17.78" x2="5.08" y2="-20.32" width="0.254" layer="94"/>
<wire x1="5.08" y1="-20.32" x2="-22.86" y2="-20.32" width="0.254" layer="94"/>
<wire x1="-22.86" y1="-20.32" x2="-22.86" y2="17.78" width="0.254" layer="94"/>
<wire x1="-22.86" y1="17.78" x2="-10.16" y2="17.78" width="0.254" layer="94"/>
<text x="-22.098" y="18.542" size="1.6764" layer="95">&gt;NAME</text>
<text x="-21.844" y="-22.352" size="1.6764" layer="96">&gt;VALUE</text>
<wire x1="-10.16" y1="17.78" x2="-7.62" y2="17.78" width="0.254" layer="94"/>
<wire x1="-7.62" y1="17.78" x2="5.08" y2="17.78" width="0.254" layer="94"/>
<wire x1="-7.62" y1="17.78" x2="-10.16" y2="17.78" width="0.254" layer="94" curve="-180"/>
</symbol>
<symbol name="UEI15-050-Q12">
<pin name="+VIN" x="17.78" y="5.08" length="middle" direction="pwr" rot="R180"/>
<pin name="-VIN" x="17.78" y="0" length="middle" direction="pwr" rot="R180"/>
<pin name="+VOUT" x="-15.24" y="10.16" length="middle" direction="pwr"/>
<pin name="TRIM" x="-15.24" y="2.54" length="middle" direction="in"/>
<pin name="-VOUT" x="-15.24" y="-5.08" length="middle" direction="pwr"/>
<pin name="ON-OFF" x="17.78" y="-5.08" length="middle" direction="in" rot="R180"/>
<wire x1="-10.16" y1="12.7" x2="12.7" y2="12.7" width="0.254" layer="94"/>
<wire x1="12.7" y1="-7.62" x2="-10.16" y2="-7.62" width="0.254" layer="94"/>
<wire x1="-10.16" y1="-7.62" x2="-10.16" y2="12.7" width="0.254" layer="94"/>
<wire x1="12.7" y1="12.7" x2="12.7" y2="-7.62" width="0.254" layer="94"/>
<text x="-10.16" y="-10.16" size="1.27" layer="94">&gt;VALUE</text>
<text x="-9.906" y="13.716" size="1.27" layer="94">&gt;NAME</text>
</symbol>
<symbol name="MPE-004">
<pin name="1" x="-12.7" y="-2.54" length="short"/>
<pin name="2" x="-12.7" y="5.08" length="short"/>
<pin name="3" x="2.54" y="-2.54" length="short" rot="R180"/>
<pin name="4" x="2.54" y="5.08" length="short" rot="R180"/>
<wire x1="-10.16" y1="-5.08" x2="-10.16" y2="7.62" width="0.254" layer="94"/>
<wire x1="-10.16" y1="7.62" x2="0" y2="7.62" width="0.254" layer="94"/>
<wire x1="0" y1="7.62" x2="0" y2="-5.08" width="0.254" layer="94"/>
<wire x1="0" y1="-5.08" x2="-10.16" y2="-5.08" width="0.254" layer="94"/>
<text x="-9.906" y="8.128" size="1.778" layer="95">&gt;NAME</text>
<text x="-9.906" y="-7.112" size="1.778" layer="96">&gt;VALUE</text>
</symbol>
<symbol name="MPE-014">
<pin name="1" x="-20.32" y="-7.62" length="short" rot="R90"/>
<pin name="2" x="-20.32" y="7.62" length="short" rot="R270"/>
<pin name="3" x="-17.78" y="-7.62" length="short" rot="R90"/>
<pin name="4" x="-17.78" y="7.62" length="short" rot="R270"/>
<pin name="5" x="-15.24" y="-7.62" length="short" rot="R90"/>
<pin name="6" x="-15.24" y="7.62" length="short" rot="R270"/>
<pin name="7" x="-12.7" y="-7.62" length="short" rot="R90"/>
<pin name="8" x="-12.7" y="7.62" length="short" rot="R270"/>
<pin name="9" x="-10.16" y="-7.62" length="short" rot="R90"/>
<pin name="10" x="-10.16" y="7.62" length="short" rot="R270"/>
<pin name="11" x="-7.62" y="-7.62" length="short" rot="R90"/>
<pin name="12" x="-7.62" y="7.62" length="short" rot="R270"/>
<pin name="13" x="-5.08" y="-7.62" length="short" rot="R90"/>
<pin name="14" x="-5.08" y="7.62" length="short" rot="R270"/>
<pin name="15" x="-2.54" y="-7.62" length="short" rot="R90"/>
<pin name="16" x="-2.54" y="7.62" length="short" rot="R270"/>
<pin name="17" x="0" y="-7.62" length="short" rot="R90"/>
<pin name="18" x="0" y="7.62" length="short" rot="R270"/>
<pin name="19" x="2.54" y="-7.62" length="short" rot="R90"/>
<pin name="20" x="2.54" y="7.62" length="short" rot="R270"/>
<pin name="21" x="5.08" y="-7.62" length="short" rot="R90"/>
<pin name="22" x="5.08" y="7.62" length="short" rot="R270"/>
<pin name="23" x="7.62" y="-7.62" length="short" rot="R90"/>
<pin name="24" x="7.62" y="7.62" length="short" rot="R270"/>
<pin name="25" x="10.16" y="-7.62" length="short" rot="R90"/>
<pin name="26" x="10.16" y="7.62" length="short" rot="R270"/>
<pin name="27" x="12.7" y="-7.62" length="short" rot="R90"/>
<pin name="28" x="12.7" y="7.62" length="short" rot="R270"/>
<wire x1="-21.844" y1="5.08" x2="13.97" y2="5.08" width="0.254" layer="94"/>
<wire x1="13.97" y1="-5.08" x2="-21.844" y2="-5.08" width="0.254" layer="94"/>
<wire x1="-21.844" y1="-5.08" x2="-21.844" y2="5.08" width="0.254" layer="94"/>
<wire x1="13.97" y1="4.826" x2="13.97" y2="-5.08" width="0.254" layer="94"/>
</symbol>
<symbol name="ETAL-P5122">
<pin name="1" x="-5.08" y="-7.62" length="short" rot="R90"/>
<pin name="2" x="2.54" y="-7.62" length="short" rot="R90"/>
<pin name="3" x="2.54" y="7.62" length="short" rot="R270"/>
<pin name="4" x="-5.08" y="7.62" length="short" rot="R270"/>
<wire x1="-7.62" y1="5.08" x2="-5.08" y2="5.08" width="0.254" layer="94"/>
<wire x1="-5.08" y1="5.08" x2="5.08" y2="5.08" width="0.254" layer="94"/>
<wire x1="5.08" y1="5.08" x2="5.08" y2="-5.08" width="0.254" layer="94"/>
<wire x1="5.08" y1="-5.08" x2="2.54" y2="-5.08" width="0.254" layer="94"/>
<wire x1="2.54" y1="-5.08" x2="-5.08" y2="-5.08" width="0.254" layer="94"/>
<wire x1="-5.08" y1="-5.08" x2="-7.62" y2="-5.08" width="0.254" layer="94"/>
<wire x1="-7.62" y1="-5.08" x2="-7.62" y2="5.08" width="0.254" layer="94"/>
<text x="-8.89" y="-5.08" size="1.27" layer="94" rot="R90">&gt;NAME</text>
<text x="7.62" y="-5.08" size="1.27" layer="94" rot="R90">&gt;VALUE</text>
<wire x1="-5.08" y1="5.08" x2="-5.08" y2="1.778" width="0.254" layer="94"/>
<wire x1="2.54" y1="5.334" x2="2.54" y2="1.524" width="0.254" layer="94"/>
<wire x1="-5.08" y1="-5.08" x2="-5.08" y2="-1.27" width="0.254" layer="94"/>
<wire x1="2.54" y1="-5.08" x2="2.54" y2="-1.27" width="0.254" layer="94"/>
<wire x1="2.54" y1="1.524" x2="0" y2="1.778" width="0.254" layer="94" curve="-180"/>
<wire x1="0" y1="1.778" x2="-2.54" y2="1.778" width="0.254" layer="94" curve="-180"/>
<wire x1="-2.54" y1="1.778" x2="-5.08" y2="1.778" width="0.254" layer="94" curve="-194.250033"/>
<wire x1="-5.08" y1="-1.27" x2="-2.54" y2="-1.524" width="0.254" layer="94" curve="-180"/>
<wire x1="-2.54" y1="-1.524" x2="0" y2="-1.524" width="0.254" layer="94" curve="-180"/>
<wire x1="0" y1="-1.524" x2="2.54" y2="-1.27" width="0.254" layer="94" curve="-180"/>
</symbol>
<symbol name="MPE-008">
<pin name="1" x="-7.62" y="2.54" length="middle" rot="R90"/>
<pin name="3" x="-5.08" y="2.54" length="middle" rot="R90"/>
<pin name="5" x="-2.54" y="2.54" length="middle" rot="R90"/>
<pin name="7" x="0" y="2.54" length="middle" rot="R90"/>
<pin name="2" x="-7.62" y="25.4" length="middle" rot="R270"/>
<pin name="4" x="-5.08" y="25.4" length="middle" rot="R270"/>
<pin name="8" x="0" y="25.4" length="middle" rot="R270"/>
<pin name="6" x="-2.54" y="25.4" length="middle" rot="R270"/>
<wire x1="-10.16" y1="20.32" x2="2.54" y2="20.32" width="0.254" layer="94"/>
<wire x1="2.54" y1="20.32" x2="2.54" y2="7.62" width="0.254" layer="94"/>
<wire x1="2.54" y1="7.62" x2="-10.16" y2="7.62" width="0.254" layer="94"/>
<wire x1="-10.16" y1="7.62" x2="-10.16" y2="20.32" width="0.254" layer="94"/>
<text x="5.08" y="20.32" size="1.27" layer="94">&gt;NAME</text>
<text x="5.08" y="7.62" size="1.27" layer="94">&gt;VALUE</text>
</symbol>
<symbol name="MP-010">
<pin name="2" x="-7.62" y="5.08" length="middle" rot="R270"/>
<pin name="4" x="-5.08" y="5.08" length="middle" rot="R270"/>
<pin name="6" x="-2.54" y="5.08" length="middle" rot="R270"/>
<pin name="8" x="0" y="5.08" length="middle" rot="R270"/>
<pin name="10" x="2.54" y="5.08" length="middle" rot="R270"/>
<pin name="1" x="-7.62" y="-15.24" length="middle" rot="R90"/>
<pin name="3" x="-5.08" y="-15.24" length="middle" rot="R90"/>
<pin name="5" x="-2.54" y="-15.24" length="middle" rot="R90"/>
<pin name="7" x="0" y="-15.24" length="middle" rot="R90"/>
<pin name="9" x="2.54" y="-15.24" length="middle" rot="R90"/>
<wire x1="-10.16" y1="0" x2="5.08" y2="0" width="0.254" layer="94"/>
<wire x1="5.08" y1="0" x2="5.08" y2="-10.16" width="0.254" layer="94"/>
<wire x1="5.08" y1="-10.16" x2="-10.16" y2="-10.16" width="0.254" layer="94"/>
<wire x1="-10.16" y1="-10.16" x2="-10.16" y2="0" width="0.254" layer="94"/>
<text x="6.35" y="-2.286" size="1.27" layer="94">&gt;NAME</text>
<text x="6.096" y="-10.16" size="1.27" layer="94">&gt;VALUE</text>
</symbol>
<symbol name="ETAL-P1200">
<pin name="1" x="-5.08" y="-7.62" length="short" rot="R90"/>
<pin name="2" x="2.54" y="-7.62" length="short" rot="R90"/>
<pin name="3" x="2.54" y="7.62" length="short" rot="R270"/>
<pin name="4" x="-5.08" y="7.62" length="short" rot="R270"/>
<wire x1="-7.62" y1="5.08" x2="-5.08" y2="5.08" width="0.254" layer="94"/>
<wire x1="-5.08" y1="5.08" x2="5.08" y2="5.08" width="0.254" layer="94"/>
<wire x1="5.08" y1="5.08" x2="5.08" y2="-5.08" width="0.254" layer="94"/>
<wire x1="5.08" y1="-5.08" x2="2.54" y2="-5.08" width="0.254" layer="94"/>
<wire x1="2.54" y1="-5.08" x2="-5.08" y2="-5.08" width="0.254" layer="94"/>
<wire x1="-5.08" y1="-5.08" x2="-7.62" y2="-5.08" width="0.254" layer="94"/>
<wire x1="-7.62" y1="-5.08" x2="-7.62" y2="5.08" width="0.254" layer="94"/>
<text x="-8.89" y="-5.08" size="1.27" layer="94" rot="R90">&gt;NAME</text>
<text x="7.62" y="-5.08" size="1.27" layer="94" rot="R90">&gt;VALUE</text>
<wire x1="-5.08" y1="5.08" x2="-5.08" y2="1.778" width="0.254" layer="94"/>
<wire x1="2.54" y1="5.334" x2="2.54" y2="1.524" width="0.254" layer="94"/>
<wire x1="-5.08" y1="-5.08" x2="-5.08" y2="-1.27" width="0.254" layer="94"/>
<wire x1="2.54" y1="-5.08" x2="2.54" y2="-1.27" width="0.254" layer="94"/>
<wire x1="2.54" y1="1.524" x2="0" y2="1.778" width="0.254" layer="94" curve="-180"/>
<wire x1="0" y1="1.778" x2="-2.54" y2="1.778" width="0.254" layer="94" curve="-180"/>
<wire x1="-2.54" y1="1.778" x2="-5.08" y2="1.778" width="0.254" layer="94" curve="-194.250033"/>
<wire x1="-5.08" y1="-1.27" x2="-2.54" y2="-1.524" width="0.254" layer="94" curve="-180"/>
<wire x1="-2.54" y1="-1.524" x2="0" y2="-1.524" width="0.254" layer="94" curve="-180"/>
<wire x1="0" y1="-1.524" x2="2.54" y2="-1.27" width="0.254" layer="94" curve="-180"/>
</symbol>
<symbol name="SCHRAUBKLEMME-PCB-12M4">
<description>Befestigung für Platienen oder als Schraubklemme nutzba</description>
<pin name="2" x="-2.54" y="5.08" length="short" rot="R270"/>
<pin name="4" x="5.08" y="5.08" length="short" rot="R270"/>
<pin name="3" x="5.08" y="-7.62" length="short" rot="R90"/>
<pin name="1" x="-2.54" y="-7.62" length="short" rot="R90"/>
<wire x1="-5.08" y1="7.62" x2="7.62" y2="7.62" width="0.254" layer="94"/>
<wire x1="7.62" y1="7.62" x2="7.62" y2="-12.7" width="0.254" layer="94"/>
<wire x1="7.62" y1="-12.7" x2="5.08" y2="-12.7" width="0.254" layer="94"/>
<wire x1="5.08" y1="-12.7" x2="-2.54" y2="-12.7" width="0.254" layer="94"/>
<wire x1="-5.08" y1="7.62" x2="-5.08" y2="-12.7" width="0.254" layer="94"/>
<wire x1="-5.08" y1="-12.7" x2="-2.54" y2="-12.7" width="0.254" layer="94"/>
<wire x1="-2.54" y1="-12.7" x2="-2.54" y2="-12.192" width="0.254" layer="94"/>
<wire x1="-2.54" y1="-10.16" x2="-2.286" y2="-10.16" width="0.254" layer="94"/>
<text x="0.254" y="-11.938" size="1.27" layer="94">M4</text>
<text x="-5.08" y="8.382" size="1.27" layer="95">&gt;NAME</text>
<text x="-5.08" y="-14.732" size="1.27" layer="96">&gt;VALUE</text>
<text x="2.032" y="-6.096" size="1.27" layer="94" rot="R90">PCB12(M4)</text>
<wire x1="-2.286" y1="-10.16" x2="4.826" y2="-10.16" width="0.254" layer="94"/>
<wire x1="4.826" y1="-10.16" x2="5.08" y2="-10.16" width="0.254" layer="94"/>
<wire x1="5.08" y1="-12.192" x2="5.08" y2="-12.7" width="0.254" layer="94"/>
<wire x1="-2.54" y1="-10.16" x2="-2.54" y2="-10.668" width="0.254" layer="94"/>
<wire x1="-2.286" y1="-10.668" x2="-2.54" y2="-10.668" width="0.254" layer="94"/>
<wire x1="-2.54" y1="-10.668" x2="-2.54" y2="-11.43" width="0.254" layer="94"/>
<wire x1="-2.286" y1="-11.43" x2="-2.54" y2="-11.43" width="0.254" layer="94"/>
<wire x1="-2.54" y1="-11.43" x2="-2.54" y2="-12.192" width="0.254" layer="94"/>
<wire x1="-2.54" y1="-12.192" x2="-2.286" y2="-12.192" width="0.254" layer="94"/>
<wire x1="5.08" y1="-10.16" x2="5.08" y2="-10.668" width="0.254" layer="94"/>
<wire x1="4.826" y1="-10.668" x2="5.08" y2="-10.668" width="0.254" layer="94"/>
<wire x1="5.08" y1="-10.668" x2="5.08" y2="-11.43" width="0.254" layer="94"/>
<wire x1="4.826" y1="-11.43" x2="5.08" y2="-11.43" width="0.254" layer="94"/>
<wire x1="5.08" y1="-11.43" x2="5.08" y2="-12.192" width="0.254" layer="94"/>
<wire x1="5.08" y1="-12.192" x2="4.826" y2="-12.192" width="0.254" layer="94"/>
<wire x1="-2.286" y1="-10.16" x2="-2.286" y2="-9.652" width="0.254" layer="94"/>
<wire x1="4.826" y1="-10.16" x2="4.826" y2="-9.652" width="0.254" layer="94"/>
</symbol>
<symbol name="RJ45-MEBP8-8G">
<pin name="1" x="-12.7" y="0" length="middle" rot="R90"/>
<pin name="2" x="-10.16" y="0" length="middle" rot="R90"/>
<pin name="3" x="-7.62" y="0" length="middle" rot="R90"/>
<pin name="4" x="-5.08" y="0" length="middle" rot="R90"/>
<pin name="5" x="-2.54" y="0" length="middle" rot="R90"/>
<pin name="6" x="0" y="0" length="middle" rot="R90"/>
<pin name="7" x="2.54" y="0" length="middle" rot="R90"/>
<pin name="8" x="5.08" y="0" length="middle" rot="R90"/>
<wire x1="-15.24" y1="10.16" x2="7.62" y2="10.16" width="0.254" layer="94"/>
<wire x1="7.62" y1="10.16" x2="7.62" y2="5.588" width="0.254" layer="94"/>
<wire x1="7.62" y1="5.588" x2="7.62" y2="2.794" width="0.254" layer="94"/>
<wire x1="7.62" y1="2.794" x2="7.62" y2="-2.54" width="0.254" layer="94"/>
<wire x1="7.62" y1="-2.54" x2="5.08" y2="-2.54" width="0.254" layer="94"/>
<wire x1="5.08" y1="-2.54" x2="5.08" y2="-5.08" width="0.254" layer="94"/>
<wire x1="5.08" y1="-5.08" x2="0" y2="-5.08" width="0.254" layer="94"/>
<wire x1="0" y1="-5.08" x2="0" y2="-7.62" width="0.254" layer="94"/>
<wire x1="0" y1="-7.62" x2="-7.62" y2="-7.62" width="0.254" layer="94"/>
<wire x1="-7.62" y1="-7.62" x2="-7.62" y2="-5.08" width="0.254" layer="94"/>
<wire x1="-7.62" y1="-5.08" x2="-12.7" y2="-5.08" width="0.254" layer="94"/>
<wire x1="-12.7" y1="-5.08" x2="-12.7" y2="-2.54" width="0.254" layer="94"/>
<wire x1="-12.7" y1="-2.54" x2="-15.24" y2="-2.54" width="0.254" layer="94"/>
<wire x1="-15.24" y1="-2.54" x2="-15.24" y2="2.794" width="0.254" layer="94"/>
<wire x1="-15.24" y1="2.794" x2="-15.24" y2="10.16" width="0.254" layer="94"/>
<wire x1="-6.858" y1="-5.08" x2="-6.858" y2="-6.858" width="0.254" layer="94"/>
<wire x1="-6.858" y1="-6.858" x2="-0.762" y2="-6.858" width="0.254" layer="94"/>
<wire x1="-0.762" y1="-6.858" x2="-0.762" y2="-5.08" width="0.254" layer="94"/>
<wire x1="-15.24" y1="5.588" x2="-14.478" y2="5.588" width="0.254" layer="94"/>
<wire x1="-14.478" y1="5.588" x2="-14.478" y2="2.794" width="0.254" layer="94"/>
<wire x1="-14.478" y1="2.794" x2="-15.24" y2="2.794" width="0.254" layer="94"/>
<wire x1="7.62" y1="5.588" x2="6.858" y2="5.588" width="0.254" layer="94"/>
<wire x1="6.858" y1="5.588" x2="6.858" y2="2.794" width="0.254" layer="94"/>
<wire x1="6.858" y1="2.794" x2="7.62" y2="2.794" width="0.254" layer="94"/>
<text x="-14.986" y="11.176" size="1.6764" layer="94">&gt;NAME</text>
<text x="-8.636" y="-10.16" size="1.6764" layer="94">&gt;VALUE</text>
<pin name="G1" x="-20.32" y="5.08" length="middle"/>
<pin name="G2" x="12.7" y="5.08" length="middle" rot="R180"/>
</symbol>
</symbols>
<devicesets>
<deviceset name="GL850G" prefix="IC" uservalue="yes">
<description>https://i.stack.imgur.com/zhgAC.png</description>
<gates>
<gate name="G$1" symbol="GL850G" x="0" y="5.08"/>
</gates>
<devices>
<device name="" package="GL850G">
<connects>
<connect gate="G$1" pin="5V" pad="23"/>
<connect gate="G$1" pin="AVDD1" pad="1"/>
<connect gate="G$1" pin="AVDD2" pad="5"/>
<connect gate="G$1" pin="AVDD3" pad="10"/>
<connect gate="G$1" pin="DVDD" pad="16"/>
<connect gate="G$1" pin="GND" pad="15"/>
<connect gate="G$1" pin="OVCUR1#" pad="21"/>
<connect gate="G$1" pin="OVCUR2#" pad="19"/>
<connect gate="G$1" pin="PGANG" pad="18"/>
<connect gate="G$1" pin="PSELF" pad="17"/>
<connect gate="G$1" pin="PWREN1#" pad="22"/>
<connect gate="G$1" pin="PWREN2#" pad="20"/>
<connect gate="G$1" pin="RESET" pad="13"/>
<connect gate="G$1" pin="RREF" pad="4"/>
<connect gate="G$1" pin="TEST/SCL" pad="14"/>
<connect gate="G$1" pin="USB-IN+" pad="26"/>
<connect gate="G$1" pin="USB-IN-" pad="25"/>
<connect gate="G$1" pin="USB1_D+" pad="28"/>
<connect gate="G$1" pin="USB1_D-" pad="27"/>
<connect gate="G$1" pin="USB2_D+" pad="3"/>
<connect gate="G$1" pin="USB2_D-" pad="2"/>
<connect gate="G$1" pin="USB3_D+" pad="9"/>
<connect gate="G$1" pin="USB3_D-" pad="8"/>
<connect gate="G$1" pin="USB4_D+" pad="12"/>
<connect gate="G$1" pin="USB4_D-" pad="11"/>
<connect gate="G$1" pin="V33" pad="24"/>
<connect gate="G$1" pin="X1" pad="6"/>
<connect gate="G$1" pin="X2" pad="7"/>
</connects>
<technologies>
<technology name=""/>
</technologies>
</device>
</devices>
</deviceset>
<deviceset name="UEI15-050-Q12">
<gates>
<gate name="G$1" symbol="UEI15-050-Q12" x="0" y="0"/>
</gates>
<devices>
<device name="" package="UEI15-050-Q12">
<connects>
<connect gate="G$1" pin="+VIN" pad="1"/>
<connect gate="G$1" pin="+VOUT" pad="3"/>
<connect gate="G$1" pin="-VIN" pad="2"/>
<connect gate="G$1" pin="-VOUT" pad="5"/>
<connect gate="G$1" pin="ON-OFF" pad="6"/>
<connect gate="G$1" pin="TRIM" pad="4"/>
</connects>
<technologies>
<technology name=""/>
</technologies>
</device>
</devices>
</deviceset>
<deviceset name="MPE-004">
<description>Reichelt MPE 087-2-004</description>
<gates>
<gate name="G$1" symbol="MPE-004" x="5.08" y="0"/>
</gates>
<devices>
<device name="" package="MPE-004">
<connects>
<connect gate="G$1" pin="1" pad="1"/>
<connect gate="G$1" pin="2" pad="2"/>
<connect gate="G$1" pin="3" pad="3"/>
<connect gate="G$1" pin="4" pad="4"/>
</connects>
<technologies>
<technology name=""/>
</technologies>
</device>
</devices>
</deviceset>
<deviceset name="MPE-014" uservalue="yes">
<description>Reichelt MPE 087-2-014</description>
<gates>
<gate name="G$1" symbol="MPE-014" x="0" y="5.08"/>
</gates>
<devices>
<device name="" package="MPE-014">
<connects>
<connect gate="G$1" pin="1" pad="1"/>
<connect gate="G$1" pin="10" pad="10"/>
<connect gate="G$1" pin="11" pad="11"/>
<connect gate="G$1" pin="12" pad="12"/>
<connect gate="G$1" pin="13" pad="13"/>
<connect gate="G$1" pin="14" pad="14"/>
<connect gate="G$1" pin="15" pad="15"/>
<connect gate="G$1" pin="16" pad="16"/>
<connect gate="G$1" pin="17" pad="17"/>
<connect gate="G$1" pin="18" pad="18"/>
<connect gate="G$1" pin="19" pad="19"/>
<connect gate="G$1" pin="2" pad="2"/>
<connect gate="G$1" pin="20" pad="20"/>
<connect gate="G$1" pin="21" pad="21"/>
<connect gate="G$1" pin="22" pad="22"/>
<connect gate="G$1" pin="23" pad="23"/>
<connect gate="G$1" pin="24" pad="24"/>
<connect gate="G$1" pin="25" pad="25"/>
<connect gate="G$1" pin="26" pad="26"/>
<connect gate="G$1" pin="27" pad="27"/>
<connect gate="G$1" pin="28" pad="28"/>
<connect gate="G$1" pin="3" pad="3"/>
<connect gate="G$1" pin="4" pad="4"/>
<connect gate="G$1" pin="5" pad="5"/>
<connect gate="G$1" pin="6" pad="6"/>
<connect gate="G$1" pin="7" pad="7"/>
<connect gate="G$1" pin="8" pad="8"/>
<connect gate="G$1" pin="9" pad="9"/>
</connects>
<technologies>
<technology name=""/>
</technologies>
</device>
</devices>
</deviceset>
<deviceset name="ETAL-P5122">
<gates>
<gate name="G$1" symbol="ETAL-P5122" x="2.54" y="0"/>
</gates>
<devices>
<device name="" package="ETAL-P5122">
<connects>
<connect gate="G$1" pin="1" pad="1"/>
<connect gate="G$1" pin="2" pad="2"/>
<connect gate="G$1" pin="3" pad="3"/>
<connect gate="G$1" pin="4" pad="4"/>
</connects>
<technologies>
<technology name=""/>
</technologies>
</device>
</devices>
</deviceset>
<deviceset name="MPE-008">
<gates>
<gate name="G$1" symbol="MPE-008" x="2.54" y="-12.7"/>
</gates>
<devices>
<device name="" package="MPE-008">
<connects>
<connect gate="G$1" pin="1" pad="1"/>
<connect gate="G$1" pin="2" pad="2"/>
<connect gate="G$1" pin="3" pad="3"/>
<connect gate="G$1" pin="4" pad="4"/>
<connect gate="G$1" pin="5" pad="5"/>
<connect gate="G$1" pin="6" pad="6"/>
<connect gate="G$1" pin="7" pad="7"/>
<connect gate="G$1" pin="8" pad="8"/>
</connects>
<technologies>
<technology name=""/>
</technologies>
</device>
</devices>
</deviceset>
<deviceset name="MPE-010" uservalue="yes">
<gates>
<gate name="G$1" symbol="MP-010" x="2.54" y="5.08"/>
</gates>
<devices>
<device name="" package="MP-010">
<connects>
<connect gate="G$1" pin="1" pad="1"/>
<connect gate="G$1" pin="10" pad="10"/>
<connect gate="G$1" pin="2" pad="2"/>
<connect gate="G$1" pin="3" pad="3"/>
<connect gate="G$1" pin="4" pad="4"/>
<connect gate="G$1" pin="5" pad="5"/>
<connect gate="G$1" pin="6" pad="6"/>
<connect gate="G$1" pin="7" pad="7"/>
<connect gate="G$1" pin="8" pad="8"/>
<connect gate="G$1" pin="9" pad="9"/>
</connects>
<technologies>
<technology name=""/>
</technologies>
</device>
</devices>
</deviceset>
<deviceset name="ETAL-P1200">
<description>https://shop.funk24.net/1-1-uebertrager-nf-uebertrager-p1200-industriequalitaet</description>
<gates>
<gate name="G$1" symbol="ETAL-P5122" x="2.54" y="0"/>
</gates>
<devices>
<device name="ETAL-P1200" package="ETAL-P1200">
<connects>
<connect gate="G$1" pin="1" pad="1"/>
<connect gate="G$1" pin="2" pad="2"/>
<connect gate="G$1" pin="3" pad="3"/>
<connect gate="G$1" pin="4" pad="4"/>
</connects>
<technologies>
<technology name=""/>
</technologies>
</device>
</devices>
</deviceset>
<deviceset name="SCHRAUBKLEMME-PCB-12M4" uservalue="yes">
<gates>
<gate name="G$1" symbol="SCHRAUBKLEMME-PCB-12M4" x="-5.08" y="5.08"/>
</gates>
<devices>
<device name="" package="SCHRAUBKLEMME-PCB-12M4">
<connects>
<connect gate="G$1" pin="1" pad="1"/>
<connect gate="G$1" pin="2" pad="2"/>
<connect gate="G$1" pin="3" pad="3"/>
<connect gate="G$1" pin="4" pad="4"/>
</connects>
<technologies>
<technology name=""/>
</technologies>
</device>
</devices>
</deviceset>
<deviceset name="RJ45-MEBP8-8G" uservalue="yes">
<description>https://www.reichelt.de/modular-einbaubuchse-8-8-geschirmt-mebp-8-8g-p24975.html?&amp;trstct=pos_0&lt;br&gt;
Artikel-Nr.: MEBP 8-8G
&lt;br&gt;
&lt;img src="https://cdn-reichelt.de/bilder/web/xxl_ws/G100/MEBP64G2.png"&gt;</description>
<gates>
<gate name="G$1" symbol="RJ45-MEBP8-8G" x="5.08" y="-5.08"/>
</gates>
<devices>
<device name="" package="RJ45-MEBP8-8G">
<connects>
<connect gate="G$1" pin="1" pad="1"/>
<connect gate="G$1" pin="2" pad="2"/>
<connect gate="G$1" pin="3" pad="3"/>
<connect gate="G$1" pin="4" pad="4"/>
<connect gate="G$1" pin="5" pad="5"/>
<connect gate="G$1" pin="6" pad="6"/>
<connect gate="G$1" pin="7" pad="7"/>
<connect gate="G$1" pin="8" pad="8"/>
<connect gate="G$1" pin="G1" pad="G1"/>
<connect gate="G$1" pin="G2" pad="G2"/>
</connects>
<technologies>
<technology name=""/>
</technologies>
</device>
</devices>
</deviceset>
</devicesets>
</library>
</drawing>
</eagle>
