<?xml version="1.0" encoding="utf-8"?>
<!DOCTYPE eagle SYSTEM "eagle.dtd">
<eagle version="9.5.2">
<drawing>
<settings>
<setting alwaysvectorfont="no"/>
<setting keepoldvectorfont="yes"/>
<setting verticaltext="up"/>
</settings>
<grid distance="50" unitdist="mil" unit="mil" style="lines" multiple="1" display="yes" altdistance="5" altunitdist="mil" altunit="mil"/>
<layers>
<layer number="1" name="Top" color="4" fill="1" visible="yes" active="yes"/>
<layer number="2" name="Route2" color="3" fill="3" visible="no" active="no"/>
<layer number="3" name="Route3" color="5" fill="3" visible="no" active="no"/>
<layer number="4" name="Route4" color="6" fill="4" visible="no" active="no"/>
<layer number="5" name="Route5" color="14" fill="4" visible="no" active="no"/>
<layer number="6" name="Route6" color="1" fill="8" visible="no" active="no"/>
<layer number="7" name="Route7" color="4" fill="8" visible="no" active="no"/>
<layer number="8" name="Route8" color="1" fill="2" visible="no" active="no"/>
<layer number="9" name="Route9" color="4" fill="2" visible="no" active="no"/>
<layer number="10" name="Route10" color="1" fill="7" visible="no" active="no"/>
<layer number="11" name="Route11" color="4" fill="7" visible="no" active="no"/>
<layer number="12" name="Route12" color="1" fill="5" visible="no" active="no"/>
<layer number="13" name="Route13" color="4" fill="5" visible="no" active="no"/>
<layer number="14" name="Route14" color="1" fill="6" visible="no" active="no"/>
<layer number="15" name="Route15" color="4" fill="6" visible="no" active="no"/>
<layer number="16" name="Bottom" color="1" fill="1" visible="yes" active="yes"/>
<layer number="17" name="Pads" color="2" fill="1" visible="yes" active="yes"/>
<layer number="18" name="Vias" color="2" fill="1" visible="yes" active="yes"/>
<layer number="19" name="Unrouted" color="6" fill="1" visible="yes" active="yes"/>
<layer number="20" name="Dimension" color="15" fill="1" visible="yes" active="yes"/>
<layer number="21" name="tPlace" color="7" fill="1" visible="yes" active="yes"/>
<layer number="22" name="bPlace" color="7" fill="1" visible="yes" active="yes"/>
<layer number="23" name="tOrigins" color="15" fill="1" visible="yes" active="yes"/>
<layer number="24" name="bOrigins" color="15" fill="1" visible="yes" active="yes"/>
<layer number="25" name="tNames" color="7" fill="1" visible="yes" active="yes"/>
<layer number="26" name="bNames" color="7" fill="1" visible="yes" active="yes"/>
<layer number="27" name="tValues" color="7" fill="1" visible="yes" active="yes"/>
<layer number="28" name="bValues" color="7" fill="1" visible="yes" active="yes"/>
<layer number="29" name="tStop" color="7" fill="3" visible="no" active="yes"/>
<layer number="30" name="bStop" color="7" fill="6" visible="no" active="yes"/>
<layer number="31" name="tCream" color="7" fill="4" visible="no" active="yes"/>
<layer number="32" name="bCream" color="7" fill="5" visible="no" active="yes"/>
<layer number="33" name="tFinish" color="6" fill="3" visible="no" active="yes"/>
<layer number="34" name="bFinish" color="6" fill="6" visible="no" active="yes"/>
<layer number="35" name="tGlue" color="7" fill="4" visible="no" active="yes"/>
<layer number="36" name="bGlue" color="7" fill="5" visible="no" active="yes"/>
<layer number="37" name="tTest" color="7" fill="1" visible="no" active="yes"/>
<layer number="38" name="bTest" color="7" fill="1" visible="no" active="yes"/>
<layer number="39" name="tKeepout" color="4" fill="11" visible="yes" active="yes"/>
<layer number="40" name="bKeepout" color="1" fill="11" visible="yes" active="yes"/>
<layer number="41" name="tRestrict" color="4" fill="10" visible="yes" active="yes"/>
<layer number="42" name="bRestrict" color="1" fill="10" visible="yes" active="yes"/>
<layer number="43" name="vRestrict" color="2" fill="10" visible="yes" active="yes"/>
<layer number="44" name="Drills" color="7" fill="1" visible="no" active="yes"/>
<layer number="45" name="Holes" color="7" fill="1" visible="no" active="yes"/>
<layer number="46" name="Milling" color="3" fill="1" visible="no" active="yes"/>
<layer number="47" name="Measures" color="7" fill="1" visible="no" active="yes"/>
<layer number="48" name="Document" color="7" fill="1" visible="yes" active="yes"/>
<layer number="49" name="Reference" color="7" fill="1" visible="yes" active="yes"/>
<layer number="51" name="tDocu" color="7" fill="1" visible="yes" active="yes"/>
<layer number="52" name="bDocu" color="7" fill="1" visible="yes" active="yes"/>
<layer number="88" name="SimResults" color="9" fill="1" visible="yes" active="yes"/>
<layer number="89" name="SimProbes" color="9" fill="1" visible="yes" active="yes"/>
<layer number="91" name="Nets" color="2" fill="1" visible="yes" active="yes"/>
<layer number="92" name="Busses" color="1" fill="1" visible="yes" active="yes"/>
<layer number="93" name="Pins" color="2" fill="1" visible="yes" active="yes"/>
<layer number="94" name="Symbols" color="4" fill="1" visible="yes" active="yes"/>
<layer number="95" name="Names" color="7" fill="1" visible="yes" active="yes"/>
<layer number="96" name="Values" color="7" fill="1" visible="yes" active="yes"/>
<layer number="97" name="Info" color="7" fill="1" visible="yes" active="yes"/>
<layer number="98" name="Guide" color="6" fill="1" visible="yes" active="yes"/>
</layers>
<library>
<packages>
<package name="M_DIN3">
<wire x1="7" y1="4.75" x2="-7" y2="4.75" width="0.127" layer="21"/>
<wire x1="-7" y1="4.75" x2="-7" y2="0.25" width="0.127" layer="22"/>
<wire x1="-7" y1="0.25" x2="-7" y2="-8.05" width="0.127" layer="22"/>
<wire x1="-7" y1="-8.05" x2="7" y2="-8" width="0.127" layer="21"/>
<wire x1="7" y1="-8" x2="7" y2="-1.75" width="0.127" layer="22"/>
<wire x1="7" y1="-1.75" x2="7" y2="0.25" width="0.127" layer="22"/>
<wire x1="7" y1="0.25" x2="7" y2="4.75" width="0.127" layer="22"/>
<wire x1="7" y1="0.25" x2="6.7" y2="0.25" width="0.127" layer="22"/>
<wire x1="6.7" y1="0.25" x2="6.7" y2="-1.75" width="0.127" layer="22"/>
<wire x1="6.7" y1="-1.75" x2="7" y2="-1.75" width="0.127" layer="22"/>
<wire x1="-7" y1="0.25" x2="-6.7" y2="0.25" width="0.127" layer="22"/>
<wire x1="-6.7" y1="0.25" x2="-6.7" y2="-1.75" width="0.127" layer="22"/>
<wire x1="-6.7" y1="-1.75" x2="-6.95" y2="-1.75" width="0.127" layer="22"/>
<pad name="SH1" x="6.8" y="-0.75" drill="2.3" diameter="3.5"/>
<pad name="SH3" x="-6.75" y="-0.75" drill="2.3" diameter="3.5"/>
<pad name="SH2" x="0" y="0.05" drill="2.3" diameter="3.5"/>
<pad name="3" x="-3.4" y="-3.75" drill="0.9" diameter="1.4224" shape="octagon"/>
<pad name="5" x="3.4" y="-3.75" drill="0.9" diameter="1.4224" shape="octagon"/>
<pad name="7" x="0.9" y="-6.25" drill="0.9" diameter="1.4224" shape="octagon"/>
<text x="-4.58" y="-5.03" size="0.8128" layer="21">3</text>
<text x="2.28" y="-5.07" size="0.8128" layer="21">5</text>
<text x="-0.28" y="-7.57" size="0.8128" layer="21">7</text>
<text x="-6.35" y="5.13" size="1.778" layer="25" ratio="10">&gt;NAME</text>
<text x="-6.35" y="2.59" size="1.778" layer="27" ratio="10">&gt;VALUE</text>
</package>
<package name="M_DIN9">
<wire x1="7" y1="4.7" x2="-7" y2="4.7" width="0.127" layer="21"/>
<wire x1="-7" y1="4.7" x2="-7" y2="0.2" width="0.127" layer="21"/>
<wire x1="-7" y1="0.2" x2="-7" y2="-8.1" width="0.127" layer="21"/>
<wire x1="-7" y1="-8.1" x2="7" y2="-8.05" width="0.127" layer="21"/>
<wire x1="7" y1="-8.05" x2="7" y2="-1.8" width="0.127" layer="21"/>
<wire x1="7" y1="-1.8" x2="7" y2="0.2" width="0.127" layer="21"/>
<wire x1="7" y1="0.2" x2="7" y2="4.7" width="0.127" layer="21"/>
<wire x1="7" y1="0.2" x2="7.3" y2="0.2" width="0.127" layer="21"/>
<wire x1="7.3" y1="0.2" x2="7.3" y2="-1.8" width="0.127" layer="21"/>
<wire x1="7.3" y1="-1.8" x2="7" y2="-1.8" width="0.127" layer="21"/>
<wire x1="-7" y1="0.2" x2="-7.3" y2="0.2" width="0.127" layer="21"/>
<wire x1="-7.3" y1="0.2" x2="-7.3" y2="-1.8" width="0.127" layer="21"/>
<wire x1="-7.3" y1="-1.8" x2="-7.05" y2="-1.8" width="0.127" layer="21"/>
<pad name="SH1" x="7.25" y="-0.8" drill="2.3" diameter="3.5"/>
<pad name="SH3" x="-7.25" y="-0.8" drill="2.3" diameter="3.5"/>
<pad name="SH2" x="0" y="0" drill="2.3" diameter="3.5"/>
<pad name="2" x="0.7" y="-3.8" drill="0.9" diameter="1.4224" shape="octagon"/>
<pad name="1" x="-1.3" y="-3.8" drill="0.9" diameter="1.4224" shape="octagon"/>
<pad name="3" x="-4" y="-3.8" drill="0.9" diameter="1.4224" shape="octagon"/>
<pad name="6" x="4" y="-3.8" drill="0.9" diameter="1.4224" shape="octagon"/>
<pad name="9" x="4" y="-6.3" drill="0.9" diameter="1.4224" shape="octagon"/>
<pad name="8" x="2" y="-6.3" drill="0.9" diameter="1.4224" shape="octagon"/>
<pad name="5" x="0" y="-6.3" drill="0.9" diameter="1.4224" shape="octagon"/>
<pad name="4" x="-2" y="-6.3" drill="0.9" diameter="1.4224" shape="octagon"/>
<pad name="7" x="-4" y="-6.25" drill="0.9" diameter="1.4224" shape="octagon"/>
<text x="-2.286" y="-5.08" size="0.8128" layer="21">1</text>
<text x="-0.508" y="-5.08" size="0.8128" layer="21">2</text>
<text x="-5.08" y="-5.08" size="0.8128" layer="21">3</text>
<text x="-3.048" y="-7.62" size="0.8128" layer="21">4</text>
<text x="-1.27" y="-7.62" size="0.8128" layer="21">5</text>
<text x="2.794" y="-5.08" size="0.8128" layer="21">6</text>
<text x="-5.08" y="-7.62" size="0.8128" layer="21">7</text>
<text x="0.762" y="-7.62" size="0.8128" layer="21">8</text>
<text x="2.794" y="-7.62" size="0.8128" layer="21">9</text>
<text x="-6.35" y="5.08" size="1.778" layer="25" ratio="10">&gt;NAME</text>
<text x="-6.35" y="2.54" size="1.778" layer="27" ratio="10">&gt;VALUE</text>
</package>
<package name="M_DIN8">
<wire x1="7" y1="4.7" x2="-7" y2="4.7" width="0.127" layer="21"/>
<wire x1="-7" y1="4.7" x2="-7" y2="0.2" width="0.127" layer="21"/>
<wire x1="-7" y1="0.2" x2="-7" y2="-8.1" width="0.127" layer="21"/>
<wire x1="-7" y1="-8.1" x2="7" y2="-8.1008" width="0.127" layer="21"/>
<wire x1="7" y1="-8.1008" x2="7" y2="-1.8" width="0.127" layer="21"/>
<wire x1="7" y1="-1.8" x2="7" y2="0.2" width="0.127" layer="21"/>
<wire x1="7" y1="0.2" x2="7" y2="4.7" width="0.127" layer="21"/>
<wire x1="7" y1="0.2" x2="6.7" y2="0.2" width="0.127" layer="21"/>
<wire x1="6.7" y1="0.2" x2="6.7" y2="-1.8" width="0.127" layer="21"/>
<wire x1="6.7" y1="-1.8" x2="7" y2="-1.8" width="0.127" layer="21"/>
<wire x1="-7" y1="0.2" x2="-6.7" y2="0.2" width="0.127" layer="21"/>
<wire x1="-6.7" y1="0.2" x2="-6.7" y2="-1.8" width="0.127" layer="21"/>
<wire x1="-6.7" y1="-1.8" x2="-6.95" y2="-1.8" width="0.127" layer="21"/>
<pad name="SH1" x="6.8" y="-0.8" drill="2.3" diameter="3.5"/>
<pad name="SH3" x="-6.75" y="-0.8" drill="2.3" diameter="3.5"/>
<pad name="SH2" x="0" y="0" drill="2.3" diameter="3.5"/>
<pad name="2" x="1.3" y="-3.8" drill="0.9" diameter="1.4224" shape="octagon"/>
<pad name="1" x="-1.3" y="-3.8" drill="0.9" diameter="1.4224" shape="octagon"/>
<pad name="3" x="-3.4" y="-3.8" drill="0.9" diameter="1.4224" shape="octagon"/>
<pad name="5" x="3.4" y="-3.8" drill="0.9" diameter="1.4224" shape="octagon"/>
<pad name="8" x="3.4" y="-6.3" drill="0.9" diameter="1.4224" shape="octagon"/>
<pad name="7" x="0.9" y="-6.3" drill="0.9" diameter="1.4224" shape="octagon"/>
<pad name="4" x="-1.3" y="-6.3" drill="0.9" diameter="1.4224" shape="octagon"/>
<pad name="6" x="-3.4" y="-6.25" drill="0.9" diameter="1.4224" shape="octagon"/>
<text x="-2.286" y="-5.08" size="0.8128" layer="21">1</text>
<text x="0.092" y="-5.08" size="0.8128" layer="21">2</text>
<text x="-4.58" y="-5.08" size="0.8128" layer="21">3</text>
<text x="-2.498" y="-7.62" size="0.8128" layer="21">4</text>
<text x="2.28" y="-5.12" size="0.8128" layer="21">5</text>
<text x="-4.656" y="-7.58" size="0.8128" layer="21">6</text>
<text x="-0.28" y="-7.62" size="0.8128" layer="21">7</text>
<text x="2.112" y="-7.62" size="0.8128" layer="21">8</text>
<text x="-6.35" y="5.08" size="1.778" layer="25" ratio="10">&gt;NAME</text>
<text x="-6.35" y="2.54" size="1.778" layer="27" ratio="10">&gt;VALUE</text>
</package>
<package name="M_DIN7">
<wire x1="7" y1="4.75" x2="-7" y2="4.75" width="0.127" layer="21"/>
<wire x1="-7" y1="4.75" x2="-7" y2="0.25" width="0.127" layer="22"/>
<wire x1="-7" y1="0.25" x2="-7" y2="-8.05" width="0.127" layer="22"/>
<wire x1="-7" y1="-8.05" x2="7" y2="-8" width="0.127" layer="21"/>
<wire x1="7" y1="-8" x2="7" y2="-1.75" width="0.127" layer="22"/>
<wire x1="7" y1="-1.75" x2="7" y2="0.25" width="0.127" layer="22"/>
<wire x1="7" y1="0.25" x2="7" y2="4.75" width="0.127" layer="22"/>
<wire x1="7" y1="0.25" x2="6.7" y2="0.25" width="0.127" layer="22"/>
<wire x1="6.7" y1="0.25" x2="6.7" y2="-1.75" width="0.127" layer="22"/>
<wire x1="6.7" y1="-1.75" x2="7" y2="-1.75" width="0.127" layer="22"/>
<wire x1="-7" y1="0.25" x2="-6.7" y2="0.25" width="0.127" layer="22"/>
<wire x1="-6.7" y1="0.25" x2="-6.7" y2="-1.75" width="0.127" layer="22"/>
<wire x1="-6.7" y1="-1.75" x2="-6.95" y2="-1.75" width="0.127" layer="22"/>
<pad name="SH1" x="6.8" y="-0.75" drill="2.3" diameter="3.5"/>
<pad name="SH3" x="-6.75" y="-0.75" drill="2.3" diameter="3.5"/>
<pad name="SH2" x="0" y="0.05" drill="2.3" diameter="3.5"/>
<pad name="2" x="1.3" y="-3.75" drill="0.9" diameter="1.4224" shape="octagon"/>
<pad name="1" x="-1.3" y="-3.75" drill="0.9" diameter="1.4224" shape="octagon"/>
<pad name="3" x="-3.4" y="-3.75" drill="0.9" diameter="1.4224" shape="octagon"/>
<pad name="5" x="3.4" y="-3.75" drill="0.9" diameter="1.4224" shape="octagon"/>
<pad name="8" x="3.4" y="-6.25" drill="0.9" diameter="1.4224" shape="octagon"/>
<pad name="7" x="0.9" y="-6.25" drill="0.9" diameter="1.4224" shape="octagon"/>
<pad name="6" x="-3.4" y="-6.2" drill="0.9" diameter="1.4224" shape="octagon"/>
<text x="-2.286" y="-5.03" size="0.8128" layer="21">1</text>
<text x="0.092" y="-5.03" size="0.8128" layer="21">2</text>
<text x="-4.58" y="-5.03" size="0.8128" layer="21">3</text>
<text x="2.28" y="-5.07" size="0.8128" layer="21">5</text>
<text x="-4.656" y="-7.53" size="0.8128" layer="21">6</text>
<text x="-0.28" y="-7.57" size="0.8128" layer="21">7</text>
<text x="2.112" y="-7.57" size="0.8128" layer="21">8</text>
<text x="-6.35" y="5.13" size="1.778" layer="25" ratio="10">&gt;NAME</text>
<text x="-6.35" y="2.59" size="1.778" layer="27" ratio="10">&gt;VALUE</text>
</package>
<package name="M_DIN6">
<wire x1="7" y1="4.75" x2="-7" y2="4.75" width="0.127" layer="21"/>
<wire x1="-7" y1="4.75" x2="-7" y2="0.25" width="0.127" layer="21"/>
<wire x1="-7" y1="0.25" x2="-7" y2="-8.05" width="0.127" layer="21"/>
<wire x1="-7" y1="-8.05" x2="7" y2="-8.0508" width="0.127" layer="21"/>
<wire x1="7" y1="-8.0508" x2="7" y2="-1.75" width="0.127" layer="21"/>
<wire x1="7" y1="-1.75" x2="7" y2="4.75" width="0.127" layer="21"/>
<wire x1="7" y1="0.25" x2="6.7" y2="0.25" width="0.127" layer="22"/>
<wire x1="6.7" y1="0.25" x2="6.7" y2="-1.75" width="0.127" layer="21"/>
<wire x1="6.7" y1="-1.75" x2="7" y2="-1.75" width="0.127" layer="21"/>
<wire x1="-7" y1="0.25" x2="-6.7" y2="0.25" width="0.127" layer="21"/>
<wire x1="-6.7" y1="0.25" x2="-6.7" y2="-1.75" width="0.127" layer="21"/>
<wire x1="-6.7" y1="-1.75" x2="-6.95" y2="-1.75" width="0.127" layer="21"/>
<pad name="SH1" x="6.8" y="-0.75" drill="2.3" diameter="3.5"/>
<pad name="SH3" x="-6.75" y="-0.75" drill="2.3" diameter="3.5"/>
<pad name="SH2" x="0" y="0.05" drill="2.3" diameter="3.5"/>
<pad name="2" x="1.3" y="-3.75" drill="0.9" diameter="1.4224" shape="octagon"/>
<pad name="1" x="-1.3" y="-3.75" drill="0.9" diameter="1.4224" shape="octagon"/>
<pad name="3" x="-3.4" y="-3.75" drill="0.9" diameter="1.4224" shape="octagon"/>
<pad name="5" x="3.4" y="-3.75" drill="0.9" diameter="1.4224" shape="octagon"/>
<pad name="8" x="3.4" y="-6.25" drill="0.9" diameter="1.4224" shape="octagon"/>
<pad name="6" x="-3.4" y="-6.2" drill="0.9" diameter="1.4224" shape="octagon"/>
<text x="-2.286" y="-5.03" size="0.8128" layer="21">1</text>
<text x="0.092" y="-5.03" size="0.8128" layer="21">2</text>
<text x="-4.58" y="-5.03" size="0.8128" layer="21">3</text>
<text x="2.28" y="-5.07" size="0.8128" layer="21">5</text>
<text x="-4.656" y="-7.53" size="0.8128" layer="21">6</text>
<text x="2.112" y="-7.57" size="0.8128" layer="21">8</text>
<text x="-6.35" y="5.13" size="1.778" layer="25" ratio="10">&gt;NAME</text>
<text x="-6.35" y="2.59" size="1.778" layer="27" ratio="10">&gt;VALUE</text>
</package>
<package name="M_DIN5">
<wire x1="7" y1="4.75" x2="-7" y2="4.75" width="0.127" layer="21"/>
<wire x1="-7" y1="4.75" x2="-7" y2="0.25" width="0.127" layer="22"/>
<wire x1="-7" y1="0.25" x2="-7" y2="-8.05" width="0.127" layer="22"/>
<wire x1="-7" y1="-8.05" x2="7" y2="-8" width="0.127" layer="21"/>
<wire x1="7" y1="-8" x2="7" y2="-1.75" width="0.127" layer="22"/>
<wire x1="7" y1="-1.75" x2="7" y2="0.25" width="0.127" layer="22"/>
<wire x1="7" y1="0.25" x2="7" y2="4.75" width="0.127" layer="22"/>
<wire x1="7" y1="0.25" x2="6.7" y2="0.25" width="0.127" layer="22"/>
<wire x1="6.7" y1="0.25" x2="6.7" y2="-1.75" width="0.127" layer="22"/>
<wire x1="6.7" y1="-1.75" x2="7" y2="-1.75" width="0.127" layer="22"/>
<wire x1="-7" y1="0.25" x2="-6.7" y2="0.25" width="0.127" layer="22"/>
<wire x1="-6.7" y1="0.25" x2="-6.7" y2="-1.75" width="0.127" layer="22"/>
<wire x1="-6.7" y1="-1.75" x2="-6.95" y2="-1.75" width="0.127" layer="22"/>
<pad name="SH1" x="6.8" y="-0.75" drill="2.3" diameter="3.5"/>
<pad name="SH3" x="-6.75" y="-0.75" drill="2.3" diameter="3.5"/>
<pad name="SH2" x="0" y="0.05" drill="2.3" diameter="3.5"/>
<pad name="1" x="-1.3" y="-3.75" drill="0.9" diameter="1.4224" shape="octagon"/>
<pad name="3" x="-3.4" y="-3.75" drill="0.9" diameter="1.4224" shape="octagon"/>
<pad name="5" x="3.4" y="-3.75" drill="0.9" diameter="1.4224" shape="octagon"/>
<pad name="8" x="3.4" y="-6.25" drill="0.9" diameter="1.4224" shape="octagon"/>
<pad name="6" x="-3.4" y="-6.2" drill="0.9" diameter="1.4224" shape="octagon"/>
<text x="-2.286" y="-5.03" size="0.8128" layer="21">1</text>
<text x="-4.58" y="-5.03" size="0.8128" layer="21">3</text>
<text x="2.28" y="-5.07" size="0.8128" layer="21">5</text>
<text x="-4.656" y="-7.53" size="0.8128" layer="21">6</text>
<text x="2.112" y="-7.57" size="0.8128" layer="21">8</text>
<text x="-6.35" y="5.13" size="1.778" layer="25" ratio="10">&gt;NAME</text>
<text x="-6.35" y="2.59" size="1.778" layer="27" ratio="10">&gt;VALUE</text>
</package>
<package name="M_DIN4">
<wire x1="7" y1="4.75" x2="-7" y2="4.75" width="0.127" layer="21"/>
<wire x1="-7" y1="4.75" x2="-7" y2="0.25" width="0.127" layer="22"/>
<wire x1="-7" y1="0.25" x2="-7" y2="-8.05" width="0.127" layer="22"/>
<wire x1="-7" y1="-8.05" x2="7" y2="-8" width="0.127" layer="21"/>
<wire x1="7" y1="-8" x2="7" y2="-1.75" width="0.127" layer="22"/>
<wire x1="7" y1="-1.75" x2="7" y2="0.25" width="0.127" layer="22"/>
<wire x1="7" y1="0.25" x2="7" y2="4.75" width="0.127" layer="22"/>
<wire x1="7" y1="0.25" x2="6.7" y2="0.25" width="0.127" layer="22"/>
<wire x1="6.7" y1="0.25" x2="6.7" y2="-1.75" width="0.127" layer="22"/>
<wire x1="6.7" y1="-1.75" x2="7" y2="-1.75" width="0.127" layer="22"/>
<wire x1="-7" y1="0.25" x2="-6.7" y2="0.25" width="0.127" layer="22"/>
<wire x1="-6.7" y1="0.25" x2="-6.7" y2="-1.75" width="0.127" layer="22"/>
<wire x1="-6.7" y1="-1.75" x2="-6.95" y2="-1.75" width="0.127" layer="22"/>
<pad name="SH1" x="6.8" y="-0.75" drill="2.3" diameter="3.5"/>
<pad name="SH3" x="-6.75" y="-0.75" drill="2.3" diameter="3.5"/>
<pad name="SH2" x="0" y="0.05" drill="2.3" diameter="3.5"/>
<pad name="3" x="-3.4" y="-3.75" drill="0.9" diameter="1.4224" shape="octagon"/>
<pad name="5" x="3.4" y="-3.75" drill="0.9" diameter="1.4224" shape="octagon"/>
<pad name="8" x="3.4" y="-6.25" drill="0.9" diameter="1.4224" shape="octagon"/>
<pad name="6" x="-3.4" y="-6.2" drill="0.9" diameter="1.4224" shape="octagon"/>
<text x="-4.58" y="-5.03" size="0.8128" layer="21">3</text>
<text x="2.28" y="-5.07" size="0.8128" layer="21">5</text>
<text x="-4.656" y="-7.53" size="0.8128" layer="21">6</text>
<text x="2.112" y="-7.57" size="0.8128" layer="21">8</text>
<text x="-6.35" y="5.13" size="1.778" layer="25" ratio="10">&gt;NAME</text>
<text x="-6.35" y="2.59" size="1.778" layer="27" ratio="10">&gt;VALUE</text>
</package>
</packages>
<symbols>
<symbol name="M_DIN8">
<wire x1="-2.667" y1="-4.699" x2="-2.667" y2="-3.429" width="0.254" layer="94" curve="-180"/>
<wire x1="5.08" y1="0.635" x2="5.08" y2="-0.635" width="0.254" layer="94" curve="-180"/>
<wire x1="-5.08" y1="-0.635" x2="-5.08" y2="0.635" width="0.254" layer="94" curve="-180"/>
<wire x1="2.54" y1="-3.429" x2="2.54" y2="-4.699" width="0.254" layer="94" curve="-180"/>
<wire x1="-0.635" y1="0.381" x2="0.635" y2="0.381" width="0.254" layer="94" curve="180"/>
<wire x1="-1.27" y1="6.35" x2="1.27" y2="6.35" width="0.1524" layer="94"/>
<wire x1="-10.16" y1="-10.16" x2="10.16" y2="-10.16" width="0.4064" layer="94"/>
<wire x1="10.16" y1="10.16" x2="10.16" y2="-10.16" width="0.4064" layer="94"/>
<wire x1="10.16" y1="10.16" x2="-10.16" y2="10.16" width="0.4064" layer="94"/>
<wire x1="-10.16" y1="-10.16" x2="-10.16" y2="10.16" width="0.4064" layer="94"/>
<wire x1="-7.62" y1="0" x2="-5.715" y2="0" width="0.1524" layer="94"/>
<wire x1="-7.874" y1="-5.08" x2="-3.302" y2="-4.064" width="0.1524" layer="94"/>
<wire x1="0" y1="-1.524" x2="5.08" y2="-1.524" width="0.1524" layer="94"/>
<wire x1="5.08" y1="-1.524" x2="5.08" y2="-2.54" width="0.1524" layer="94"/>
<wire x1="5.715" y1="0" x2="7.62" y2="0" width="0.1524" layer="94"/>
<wire x1="-1.27" y1="6.35" x2="-1.27" y2="8.89" width="0.1524" layer="94"/>
<wire x1="-1.27" y1="8.89" x2="1.27" y2="8.89" width="0.1524" layer="94"/>
<wire x1="1.27" y1="8.89" x2="1.27" y2="6.35" width="0.1524" layer="94"/>
<wire x1="3.175" y1="-4.064" x2="7.62" y2="-5.08" width="0.1524" layer="94"/>
<wire x1="3.81" y1="3.175" x2="3.81" y2="1.905" width="0.254" layer="94" curve="-180"/>
<wire x1="-3.81" y1="1.905" x2="-3.81" y2="3.175" width="0.254" layer="94" curve="-180"/>
<wire x1="-0.635" y1="2.794" x2="0.635" y2="2.794" width="0.254" layer="94" curve="-180"/>
<wire x1="0" y1="3.429" x2="0" y2="5.08" width="0.1524" layer="94"/>
<wire x1="0" y1="5.08" x2="-7.62" y2="5.08" width="0.1524" layer="94"/>
<wire x1="-5.08" y1="2.54" x2="-4.445" y2="2.54" width="0.1524" layer="94"/>
<wire x1="4.445" y1="2.54" x2="5.715" y2="2.54" width="0.1524" layer="94"/>
<wire x1="-8.89" y1="-8.89" x2="0" y2="-8.89" width="0.1524" layer="94"/>
<wire x1="0" y1="-8.89" x2="0" y2="-7.62" width="0.1524" layer="94"/>
<wire x1="0" y1="-8.89" x2="8.89" y2="-8.89" width="0.1524" layer="94"/>
<wire x1="0" y1="-0.508" x2="0" y2="-1.524" width="0.1524" layer="94"/>
<circle x="0" y="0" radius="7.62" width="0.8128" layer="94"/>
<text x="0" y="10.795" size="1.778" layer="96">&gt;VALUE</text>
<text x="-10.16" y="10.795" size="1.778" layer="95">&gt;NAME</text>
<text x="-2.286" y="-1.651" size="1.778" layer="94">4</text>
<text x="-3.302" y="1.778" size="1.778" layer="94">8</text>
<text x="5.969" y="-8.255" size="1.524" layer="94">PE</text>
<text x="-8.636" y="-8.255" size="1.524" layer="94">PE</text>
<text x="0.889" y="-4.826" size="1.778" layer="94">1</text>
<text x="-2.159" y="-4.826" size="1.778" layer="94">2</text>
<text x="3.175" y="-0.762" size="1.778" layer="94">3</text>
<text x="-4.572" y="-0.762" size="1.778" layer="94">5</text>
<text x="1.778" y="1.778" size="1.778" layer="94">6</text>
<text x="0.381" y="3.556" size="1.778" layer="94">7</text>
<rectangle x1="-1.27" y1="6.35" x2="1.27" y2="8.89" layer="94"/>
<rectangle x1="-1.27" y1="-8.255" x2="1.27" y2="-6.985" layer="94"/>
<pin name="3" x="15.24" y="0" visible="off" direction="pas" rot="R180"/>
<pin name="1" x="15.24" y="-5.08" visible="off" direction="pas" rot="R180"/>
<pin name="5" x="-15.24" y="0" visible="off" direction="pas"/>
<pin name="4" x="12.7" y="-2.54" visible="off" direction="pas" rot="R180"/>
<pin name="2" x="-15.24" y="-5.08" visible="off" direction="pas"/>
<pin name="PE1" x="12.7" y="-7.62" visible="off" length="short" direction="pwr" swaplevel="1" rot="R180"/>
<pin name="6" x="12.7" y="2.54" visible="off" direction="pas" rot="R180"/>
<pin name="8" x="-12.7" y="2.54" visible="off" direction="pas"/>
<pin name="7" x="-15.24" y="5.08" visible="off" direction="pas"/>
<pin name="PE3" x="-12.7" y="-7.62" visible="off" length="short" direction="pwr" swaplevel="1"/>
<pin name="PE2" x="0" y="-12.7" visible="off" length="middle" direction="pwr" swaplevel="1" rot="R90"/>
<polygon width="0.254" layer="94">
<vertex x="3.048" y="-6.858"/>
<vertex x="3.048" y="-5.334"/>
<vertex x="5.588" y="-5.334"/>
</polygon>
<polygon width="0.254" layer="94">
<vertex x="-3.048" y="-6.858"/>
<vertex x="-3.048" y="-5.334"/>
<vertex x="-5.588" y="-5.334"/>
</polygon>
</symbol>
<symbol name="M_DIN7">
<wire x1="-2.667" y1="-4.699" x2="-2.667" y2="-3.429" width="0.254" layer="94" curve="-180"/>
<wire x1="5.08" y1="0.635" x2="5.08" y2="-0.635" width="0.254" layer="94" curve="-180"/>
<wire x1="-5.08" y1="-0.635" x2="-5.08" y2="0.635" width="0.254" layer="94" curve="-180"/>
<wire x1="2.54" y1="-3.429" x2="2.54" y2="-4.699" width="0.254" layer="94" curve="-180"/>
<wire x1="-1.27" y1="6.35" x2="1.27" y2="6.35" width="0.1524" layer="94"/>
<wire x1="-10.16" y1="-10.16" x2="10.16" y2="-10.16" width="0.4064" layer="94"/>
<wire x1="10.16" y1="10.16" x2="10.16" y2="-10.16" width="0.4064" layer="94"/>
<wire x1="10.16" y1="10.16" x2="-10.16" y2="10.16" width="0.4064" layer="94"/>
<wire x1="-10.16" y1="-10.16" x2="-10.16" y2="10.16" width="0.4064" layer="94"/>
<wire x1="-7.62" y1="0" x2="-5.715" y2="0" width="0.1524" layer="94"/>
<wire x1="-7.874" y1="-5.08" x2="-3.302" y2="-4.064" width="0.1524" layer="94"/>
<wire x1="5.715" y1="0" x2="7.62" y2="0" width="0.1524" layer="94"/>
<wire x1="-1.27" y1="6.35" x2="-1.27" y2="8.89" width="0.1524" layer="94"/>
<wire x1="-1.27" y1="8.89" x2="1.27" y2="8.89" width="0.1524" layer="94"/>
<wire x1="1.27" y1="8.89" x2="1.27" y2="6.35" width="0.1524" layer="94"/>
<wire x1="3.175" y1="-4.064" x2="7.62" y2="-5.08" width="0.1524" layer="94"/>
<wire x1="3.81" y1="3.175" x2="3.81" y2="1.905" width="0.254" layer="94" curve="-180"/>
<wire x1="-3.81" y1="1.905" x2="-3.81" y2="3.175" width="0.254" layer="94" curve="-180"/>
<wire x1="-0.635" y1="2.794" x2="0.635" y2="2.794" width="0.254" layer="94" curve="-180"/>
<wire x1="0" y1="3.429" x2="0" y2="5.08" width="0.1524" layer="94"/>
<wire x1="0" y1="5.08" x2="-7.62" y2="5.08" width="0.1524" layer="94"/>
<wire x1="-5.08" y1="2.54" x2="-4.445" y2="2.54" width="0.1524" layer="94"/>
<wire x1="4.445" y1="2.54" x2="5.715" y2="2.54" width="0.1524" layer="94"/>
<wire x1="-8.89" y1="-8.89" x2="0" y2="-8.89" width="0.1524" layer="94"/>
<wire x1="0" y1="-8.89" x2="0" y2="-7.62" width="0.1524" layer="94"/>
<wire x1="0" y1="-8.89" x2="8.89" y2="-8.89" width="0.1524" layer="94"/>
<circle x="0" y="0" radius="7.62" width="0.8128" layer="94"/>
<text x="0" y="10.795" size="1.778" layer="96">&gt;VALUE</text>
<text x="-10.16" y="10.795" size="1.778" layer="95">&gt;NAME</text>
<text x="-3.302" y="1.778" size="1.778" layer="94">8</text>
<text x="5.969" y="-8.255" size="1.524" layer="94">PE</text>
<text x="-8.636" y="-8.255" size="1.524" layer="94">PE</text>
<text x="0.889" y="-4.826" size="1.778" layer="94">1</text>
<text x="-2.159" y="-4.826" size="1.778" layer="94">2</text>
<text x="3.175" y="-0.762" size="1.778" layer="94">3</text>
<text x="-4.572" y="-0.762" size="1.778" layer="94">5</text>
<text x="1.778" y="1.778" size="1.778" layer="94">6</text>
<text x="0.381" y="3.556" size="1.778" layer="94">7</text>
<rectangle x1="-1.27" y1="6.35" x2="1.27" y2="8.89" layer="94"/>
<rectangle x1="-1.27" y1="-8.255" x2="1.27" y2="-6.985" layer="94"/>
<rectangle x1="-2.032" y1="-1.524" x2="2.032" y2="0.762" layer="94"/>
<pin name="3" x="15.24" y="0" visible="off" direction="pas" rot="R180"/>
<pin name="1" x="15.24" y="-5.08" visible="off" direction="pas" rot="R180"/>
<pin name="5" x="-15.24" y="0" visible="off" direction="pas"/>
<pin name="2" x="-15.24" y="-5.08" visible="off" direction="pas"/>
<pin name="PE1" x="12.7" y="-7.62" visible="off" length="short" direction="pwr" swaplevel="1" rot="R180"/>
<pin name="6" x="12.7" y="2.54" visible="off" direction="pas" rot="R180"/>
<pin name="8" x="-12.7" y="2.54" visible="off" direction="pas"/>
<pin name="7" x="-15.24" y="5.08" visible="off" direction="pas"/>
<pin name="PE3" x="-12.7" y="-7.62" visible="off" length="short" direction="pwr" swaplevel="1"/>
<pin name="PE2" x="0" y="-12.7" visible="off" length="middle" direction="pwr" swaplevel="1" rot="R90"/>
<polygon width="0.254" layer="94">
<vertex x="3.048" y="-6.858"/>
<vertex x="3.048" y="-5.334"/>
<vertex x="5.588" y="-5.334"/>
</polygon>
<polygon width="0.254" layer="94">
<vertex x="-3.048" y="-6.858"/>
<vertex x="-3.048" y="-5.334"/>
<vertex x="-5.588" y="-5.334"/>
</polygon>
</symbol>
<symbol name="M_DIN6">
<wire x1="-2.667" y1="-2.159" x2="-2.667" y2="-0.889" width="0.254" layer="94" curve="-180"/>
<wire x1="5.08" y1="3.175" x2="5.08" y2="1.905" width="0.254" layer="94" curve="-180"/>
<wire x1="-5.08" y1="1.905" x2="-5.08" y2="3.175" width="0.254" layer="94" curve="-180"/>
<wire x1="2.54" y1="-0.889" x2="2.54" y2="-2.159" width="0.254" layer="94" curve="-180"/>
<wire x1="-1.27" y1="8.89" x2="1.27" y2="8.89" width="0.1524" layer="94"/>
<wire x1="-10.16" y1="-7.62" x2="10.16" y2="-7.62" width="0.4064" layer="94"/>
<wire x1="10.16" y1="12.7" x2="10.16" y2="-7.62" width="0.4064" layer="94"/>
<wire x1="10.16" y1="12.7" x2="-10.16" y2="12.7" width="0.4064" layer="94"/>
<wire x1="-10.16" y1="-7.62" x2="-10.16" y2="12.7" width="0.4064" layer="94"/>
<wire x1="-7.62" y1="2.54" x2="-5.715" y2="2.54" width="0.1524" layer="94"/>
<wire x1="-7.874" y1="-2.54" x2="-3.302" y2="-1.524" width="0.1524" layer="94"/>
<wire x1="5.715" y1="2.54" x2="7.62" y2="2.54" width="0.1524" layer="94"/>
<wire x1="-1.27" y1="8.89" x2="-1.27" y2="11.43" width="0.1524" layer="94"/>
<wire x1="-1.27" y1="11.43" x2="1.27" y2="11.43" width="0.1524" layer="94"/>
<wire x1="1.27" y1="11.43" x2="1.27" y2="8.89" width="0.1524" layer="94"/>
<wire x1="3.175" y1="-1.524" x2="7.62" y2="-2.54" width="0.1524" layer="94"/>
<wire x1="3.81" y1="5.715" x2="3.81" y2="4.445" width="0.254" layer="94" curve="-180"/>
<wire x1="-3.81" y1="4.445" x2="-3.81" y2="5.715" width="0.254" layer="94" curve="-180"/>
<wire x1="-5.08" y1="5.08" x2="-4.445" y2="5.08" width="0.1524" layer="94"/>
<wire x1="4.445" y1="5.08" x2="5.715" y2="5.08" width="0.1524" layer="94"/>
<wire x1="-8.89" y1="-6.35" x2="0" y2="-6.35" width="0.1524" layer="94"/>
<wire x1="0" y1="-6.35" x2="0" y2="-5.08" width="0.1524" layer="94"/>
<wire x1="0" y1="-6.35" x2="8.89" y2="-6.35" width="0.1524" layer="94"/>
<circle x="0" y="2.54" radius="7.62" width="0.8128" layer="94"/>
<text x="0" y="13.335" size="1.778" layer="96">&gt;VALUE</text>
<text x="-10.16" y="13.335" size="1.778" layer="95">&gt;NAME</text>
<text x="-3.302" y="4.318" size="1.778" layer="94">8</text>
<text x="5.969" y="-5.715" size="1.524" layer="94">PE</text>
<text x="-8.636" y="-5.715" size="1.524" layer="94">PE</text>
<text x="0.889" y="-2.286" size="1.778" layer="94">1</text>
<text x="-2.159" y="-2.286" size="1.778" layer="94">2</text>
<text x="3.175" y="1.778" size="1.778" layer="94">3</text>
<text x="-4.572" y="1.778" size="1.778" layer="94">5</text>
<text x="1.778" y="4.318" size="1.778" layer="94">6</text>
<rectangle x1="-1.27" y1="8.89" x2="1.27" y2="11.43" layer="94"/>
<rectangle x1="-1.27" y1="-5.715" x2="1.27" y2="-4.445" layer="94"/>
<rectangle x1="-1.016" y1="1.778" x2="1.27" y2="5.842" layer="94"/>
<pin name="3" x="15.24" y="2.54" visible="off" direction="pas" rot="R180"/>
<pin name="1" x="15.24" y="-2.54" visible="off" direction="pas" rot="R180"/>
<pin name="5" x="-15.24" y="2.54" visible="off" direction="pas"/>
<pin name="2" x="-15.24" y="-2.54" visible="off" direction="pas"/>
<pin name="PE1" x="12.7" y="-5.08" visible="off" length="short" direction="pwr" swaplevel="1" rot="R180"/>
<pin name="6" x="12.7" y="5.08" visible="off" direction="pas" rot="R180"/>
<pin name="8" x="-12.7" y="5.08" visible="off" direction="pas"/>
<pin name="PE3" x="-12.7" y="-5.08" visible="off" length="short" direction="pwr" swaplevel="1"/>
<pin name="PE2" x="0" y="-10.16" visible="off" length="middle" direction="pwr" swaplevel="1" rot="R90"/>
<polygon width="0.254" layer="94">
<vertex x="3.048" y="-4.318"/>
<vertex x="3.048" y="-2.794"/>
<vertex x="5.588" y="-2.794"/>
</polygon>
<polygon width="0.254" layer="94">
<vertex x="-3.048" y="-4.318"/>
<vertex x="-3.048" y="-2.794"/>
<vertex x="-5.588" y="-2.794"/>
</polygon>
</symbol>
<symbol name="M_DIN5">
<wire x1="5.08" y1="3.175" x2="5.08" y2="1.905" width="0.254" layer="94" curve="-180"/>
<wire x1="-5.08" y1="1.905" x2="-5.08" y2="3.175" width="0.254" layer="94" curve="-180"/>
<wire x1="2.54" y1="-0.889" x2="2.54" y2="-2.159" width="0.254" layer="94" curve="-180"/>
<wire x1="-1.27" y1="8.89" x2="1.27" y2="8.89" width="0.1524" layer="94"/>
<wire x1="-10.16" y1="-7.62" x2="10.16" y2="-7.62" width="0.4064" layer="94"/>
<wire x1="10.16" y1="12.7" x2="10.16" y2="-7.62" width="0.4064" layer="94"/>
<wire x1="10.16" y1="12.7" x2="-10.16" y2="12.7" width="0.4064" layer="94"/>
<wire x1="-10.16" y1="-7.62" x2="-10.16" y2="12.7" width="0.4064" layer="94"/>
<wire x1="-7.62" y1="2.54" x2="-5.715" y2="2.54" width="0.1524" layer="94"/>
<wire x1="5.715" y1="2.54" x2="7.62" y2="2.54" width="0.1524" layer="94"/>
<wire x1="-1.27" y1="8.89" x2="-1.27" y2="11.43" width="0.1524" layer="94"/>
<wire x1="-1.27" y1="11.43" x2="1.27" y2="11.43" width="0.1524" layer="94"/>
<wire x1="1.27" y1="11.43" x2="1.27" y2="8.89" width="0.1524" layer="94"/>
<wire x1="3.175" y1="-1.524" x2="7.62" y2="-2.54" width="0.1524" layer="94"/>
<wire x1="3.81" y1="5.715" x2="3.81" y2="4.445" width="0.254" layer="94" curve="-180"/>
<wire x1="-3.81" y1="4.445" x2="-3.81" y2="5.715" width="0.254" layer="94" curve="-180"/>
<wire x1="-5.08" y1="5.08" x2="-4.445" y2="5.08" width="0.1524" layer="94"/>
<wire x1="4.445" y1="5.08" x2="5.715" y2="5.08" width="0.1524" layer="94"/>
<wire x1="-8.89" y1="-6.35" x2="0" y2="-6.35" width="0.1524" layer="94"/>
<wire x1="0" y1="-6.35" x2="0" y2="-5.08" width="0.1524" layer="94"/>
<wire x1="0" y1="-6.35" x2="8.89" y2="-6.35" width="0.1524" layer="94"/>
<circle x="0" y="2.54" radius="7.62" width="0.8128" layer="94"/>
<text x="0" y="13.335" size="1.778" layer="96">&gt;VALUE</text>
<text x="-10.16" y="13.335" size="1.778" layer="95">&gt;NAME</text>
<text x="-3.302" y="4.318" size="1.778" layer="94">8</text>
<text x="5.969" y="-5.715" size="1.524" layer="94">PE</text>
<text x="-8.636" y="-5.715" size="1.524" layer="94">PE</text>
<text x="0.889" y="-2.286" size="1.778" layer="94">1</text>
<text x="3.175" y="1.778" size="1.778" layer="94">3</text>
<text x="-4.572" y="1.778" size="1.778" layer="94">5</text>
<text x="1.778" y="4.318" size="1.778" layer="94">6</text>
<rectangle x1="-1.27" y1="8.89" x2="1.27" y2="11.43" layer="94"/>
<rectangle x1="-1.27" y1="-5.715" x2="1.27" y2="-4.445" layer="94"/>
<rectangle x1="-1.016" y1="1.778" x2="1.27" y2="5.842" layer="94"/>
<pin name="3" x="15.24" y="2.54" visible="off" direction="pas" rot="R180"/>
<pin name="1" x="15.24" y="-2.54" visible="off" direction="pas" rot="R180"/>
<pin name="5" x="-15.24" y="2.54" visible="off" direction="pas"/>
<pin name="PE1" x="12.7" y="-5.08" visible="off" length="short" direction="pwr" swaplevel="1" rot="R180"/>
<pin name="6" x="12.7" y="5.08" visible="off" direction="pas" rot="R180"/>
<pin name="8" x="-12.7" y="5.08" visible="off" direction="pas"/>
<pin name="PE3" x="-12.7" y="-5.08" visible="off" length="short" direction="pwr" swaplevel="1"/>
<pin name="PE2" x="0" y="-10.16" visible="off" length="middle" direction="pwr" swaplevel="1" rot="R90"/>
<polygon width="0.254" layer="94">
<vertex x="3.048" y="-4.318"/>
<vertex x="3.048" y="-2.794"/>
<vertex x="5.588" y="-2.794"/>
</polygon>
<polygon width="0.254" layer="94">
<vertex x="-3.048" y="-4.318"/>
<vertex x="-3.048" y="-2.794"/>
<vertex x="-5.588" y="-2.794"/>
</polygon>
</symbol>
<symbol name="M_DIN4">
<wire x1="5.08" y1="3.175" x2="5.08" y2="1.905" width="0.254" layer="94" curve="-180"/>
<wire x1="-5.08" y1="1.905" x2="-5.08" y2="3.175" width="0.254" layer="94" curve="-180"/>
<wire x1="-1.27" y1="8.89" x2="1.27" y2="8.89" width="0.1524" layer="94"/>
<wire x1="-10.16" y1="-7.62" x2="10.16" y2="-7.62" width="0.4064" layer="94"/>
<wire x1="10.16" y1="12.7" x2="10.16" y2="-7.62" width="0.4064" layer="94"/>
<wire x1="10.16" y1="12.7" x2="-10.16" y2="12.7" width="0.4064" layer="94"/>
<wire x1="-10.16" y1="-7.62" x2="-10.16" y2="12.7" width="0.4064" layer="94"/>
<wire x1="-7.62" y1="2.54" x2="-5.715" y2="2.54" width="0.1524" layer="94"/>
<wire x1="5.715" y1="2.54" x2="7.62" y2="2.54" width="0.1524" layer="94"/>
<wire x1="-1.27" y1="8.89" x2="-1.27" y2="11.43" width="0.1524" layer="94"/>
<wire x1="-1.27" y1="11.43" x2="1.27" y2="11.43" width="0.1524" layer="94"/>
<wire x1="1.27" y1="11.43" x2="1.27" y2="8.89" width="0.1524" layer="94"/>
<wire x1="3.81" y1="5.715" x2="3.81" y2="4.445" width="0.254" layer="94" curve="-180"/>
<wire x1="-3.81" y1="4.445" x2="-3.81" y2="5.715" width="0.254" layer="94" curve="-180"/>
<wire x1="-5.08" y1="5.08" x2="-4.445" y2="5.08" width="0.1524" layer="94"/>
<wire x1="4.445" y1="5.08" x2="5.715" y2="5.08" width="0.1524" layer="94"/>
<wire x1="-8.89" y1="-6.35" x2="0" y2="-6.35" width="0.1524" layer="94"/>
<wire x1="0" y1="-6.35" x2="0" y2="-5.08" width="0.1524" layer="94"/>
<wire x1="0" y1="-6.35" x2="8.89" y2="-6.35" width="0.1524" layer="94"/>
<circle x="0" y="2.54" radius="7.62" width="0.8128" layer="94"/>
<text x="0" y="13.335" size="1.778" layer="96">&gt;VALUE</text>
<text x="-10.16" y="13.335" size="1.778" layer="95">&gt;NAME</text>
<text x="-3.302" y="4.318" size="1.778" layer="94">8</text>
<text x="5.969" y="-5.715" size="1.524" layer="94">PE</text>
<text x="-8.636" y="-5.715" size="1.524" layer="94">PE</text>
<text x="3.175" y="1.778" size="1.778" layer="94">3</text>
<text x="-4.572" y="1.778" size="1.778" layer="94">5</text>
<text x="1.778" y="4.318" size="1.778" layer="94">6</text>
<rectangle x1="-1.27" y1="8.89" x2="1.27" y2="11.43" layer="94"/>
<rectangle x1="-1.27" y1="-5.715" x2="1.27" y2="-4.445" layer="94"/>
<rectangle x1="-2.032" y1="-1.778" x2="2.032" y2="0.508" layer="94"/>
<pin name="3" x="15.24" y="2.54" visible="off" direction="pas" rot="R180"/>
<pin name="5" x="-15.24" y="2.54" visible="off" direction="pas"/>
<pin name="PE1" x="12.7" y="-5.08" visible="off" length="short" direction="pwr" swaplevel="1" rot="R180"/>
<pin name="6" x="12.7" y="5.08" visible="off" direction="pas" rot="R180"/>
<pin name="8" x="-12.7" y="5.08" visible="off" direction="pas"/>
<pin name="PE3" x="-12.7" y="-5.08" visible="off" length="short" direction="pwr" swaplevel="1"/>
<pin name="PE2" x="0" y="-10.16" visible="off" length="middle" direction="pwr" swaplevel="1" rot="R90"/>
<polygon width="0.254" layer="94">
<vertex x="3.048" y="-4.318"/>
<vertex x="3.048" y="-2.794"/>
<vertex x="5.588" y="-2.794"/>
</polygon>
<polygon width="0.254" layer="94">
<vertex x="-3.048" y="-4.318"/>
<vertex x="-3.048" y="-2.794"/>
<vertex x="-5.588" y="-2.794"/>
</polygon>
</symbol>
<symbol name="M_DIN3">
<wire x1="5.08" y1="3.175" x2="5.08" y2="1.905" width="0.254" layer="94" curve="-180"/>
<wire x1="-5.08" y1="1.905" x2="-5.08" y2="3.175" width="0.254" layer="94" curve="-180"/>
<wire x1="-1.27" y1="8.89" x2="1.27" y2="8.89" width="0.1524" layer="94"/>
<wire x1="-10.16" y1="-7.62" x2="10.16" y2="-7.62" width="0.4064" layer="94"/>
<wire x1="10.16" y1="12.7" x2="10.16" y2="-7.62" width="0.4064" layer="94"/>
<wire x1="10.16" y1="12.7" x2="-10.16" y2="12.7" width="0.4064" layer="94"/>
<wire x1="-10.16" y1="-7.62" x2="-10.16" y2="12.7" width="0.4064" layer="94"/>
<wire x1="-7.62" y1="2.54" x2="-5.715" y2="2.54" width="0.1524" layer="94"/>
<wire x1="5.715" y1="2.54" x2="7.62" y2="2.54" width="0.1524" layer="94"/>
<wire x1="-1.27" y1="8.89" x2="-1.27" y2="11.43" width="0.1524" layer="94"/>
<wire x1="-1.27" y1="11.43" x2="1.27" y2="11.43" width="0.1524" layer="94"/>
<wire x1="1.27" y1="11.43" x2="1.27" y2="8.89" width="0.1524" layer="94"/>
<wire x1="-0.635" y1="5.334" x2="0.635" y2="5.334" width="0.254" layer="94" curve="-180"/>
<wire x1="0" y1="5.969" x2="0" y2="7.62" width="0.1524" layer="94"/>
<wire x1="0" y1="7.62" x2="-7.62" y2="7.62" width="0.1524" layer="94"/>
<wire x1="-8.89" y1="-6.35" x2="0" y2="-6.35" width="0.1524" layer="94"/>
<wire x1="0" y1="-6.35" x2="0" y2="-5.08" width="0.1524" layer="94"/>
<wire x1="0" y1="-6.35" x2="8.89" y2="-6.35" width="0.1524" layer="94"/>
<circle x="0" y="2.54" radius="7.62" width="0.8128" layer="94"/>
<text x="0" y="13.335" size="1.778" layer="96">&gt;VALUE</text>
<text x="-10.16" y="13.335" size="1.778" layer="95">&gt;NAME</text>
<text x="5.969" y="-5.715" size="1.524" layer="94">PE</text>
<text x="-8.636" y="-5.715" size="1.524" layer="94">PE</text>
<text x="3.175" y="1.778" size="1.778" layer="94">3</text>
<text x="-4.572" y="1.778" size="1.778" layer="94">5</text>
<text x="0.381" y="6.096" size="1.778" layer="94">7</text>
<rectangle x1="-1.27" y1="8.89" x2="1.27" y2="11.43" layer="94"/>
<rectangle x1="-1.27" y1="-5.715" x2="1.27" y2="-4.445" layer="94"/>
<rectangle x1="-1.778" y1="-2.286" x2="1.778" y2="2.032" layer="94"/>
<pin name="3" x="15.24" y="2.54" visible="off" direction="pas" rot="R180"/>
<pin name="5" x="-15.24" y="2.54" visible="off" direction="pas"/>
<pin name="PE1" x="12.7" y="-5.08" visible="off" length="short" direction="pwr" swaplevel="1" rot="R180"/>
<pin name="7" x="-15.24" y="7.62" visible="off" direction="pas"/>
<pin name="PE3" x="-12.7" y="-5.08" visible="off" length="short" direction="pwr" swaplevel="1"/>
<pin name="PE2" x="0" y="-10.16" visible="off" length="middle" direction="pwr" swaplevel="1" rot="R90"/>
<polygon width="0.254" layer="94">
<vertex x="3.048" y="-4.318"/>
<vertex x="3.048" y="-2.794"/>
<vertex x="5.588" y="-2.794"/>
</polygon>
<polygon width="0.254" layer="94">
<vertex x="-3.048" y="-4.318"/>
<vertex x="-3.048" y="-2.794"/>
<vertex x="-5.588" y="-2.794"/>
</polygon>
</symbol>
<symbol name="M_DIN9">
<wire x1="-2.667" y1="-2.159" x2="-2.667" y2="-0.889" width="0.254" layer="94" curve="-180"/>
<wire x1="5.08" y1="3.175" x2="5.08" y2="1.905" width="0.254" layer="94" curve="-180"/>
<wire x1="-5.08" y1="1.905" x2="-5.08" y2="3.175" width="0.254" layer="94" curve="-180"/>
<wire x1="2.54" y1="-0.889" x2="2.54" y2="-2.159" width="0.254" layer="94" curve="-180"/>
<wire x1="1.143" y1="2.921" x2="2.413" y2="2.921" width="0.254" layer="94" curve="180"/>
<wire x1="-10.16" y1="-7.62" x2="10.16" y2="-7.62" width="0.4064" layer="94"/>
<wire x1="10.16" y1="12.7" x2="10.16" y2="-7.62" width="0.4064" layer="94"/>
<wire x1="10.16" y1="12.7" x2="-10.16" y2="12.7" width="0.4064" layer="94"/>
<wire x1="-10.16" y1="-7.62" x2="-10.16" y2="12.7" width="0.4064" layer="94"/>
<wire x1="-7.62" y1="2.54" x2="-5.715" y2="2.54" width="0.1524" layer="94"/>
<wire x1="-7.62" y1="-2.54" x2="-3.302" y2="-1.524" width="0.1524" layer="94"/>
<wire x1="1.778" y1="1.778" x2="5.08" y2="1.016" width="0.1524" layer="94"/>
<wire x1="5.08" y1="1.016" x2="5.08" y2="0" width="0.1524" layer="94"/>
<wire x1="5.715" y1="2.54" x2="7.62" y2="2.54" width="0.1524" layer="94"/>
<wire x1="3.175" y1="-1.524" x2="7.62" y2="-2.54" width="0.1524" layer="94"/>
<wire x1="3.81" y1="5.715" x2="3.81" y2="4.445" width="0.254" layer="94" curve="-180"/>
<wire x1="-3.81" y1="4.445" x2="-3.81" y2="5.715" width="0.254" layer="94" curve="-180"/>
<wire x1="-0.635" y1="5.334" x2="0.635" y2="5.334" width="0.254" layer="94" curve="-180"/>
<wire x1="0" y1="5.969" x2="0" y2="7.62" width="0.1524" layer="94"/>
<wire x1="0" y1="7.62" x2="-7.62" y2="7.62" width="0.1524" layer="94"/>
<wire x1="-5.08" y1="5.08" x2="-4.445" y2="5.08" width="0.1524" layer="94"/>
<wire x1="4.445" y1="5.08" x2="5.715" y2="5.08" width="0.1524" layer="94"/>
<wire x1="-8.89" y1="-6.35" x2="0" y2="-6.35" width="0.1524" layer="94"/>
<wire x1="0" y1="-6.35" x2="0" y2="-5.08" width="0.1524" layer="94"/>
<wire x1="0" y1="-6.35" x2="8.89" y2="-6.35" width="0.1524" layer="94"/>
<wire x1="1.778" y1="2.032" x2="1.778" y2="1.778" width="0.1524" layer="94"/>
<wire x1="-2.413" y1="2.921" x2="-1.143" y2="2.921" width="0.254" layer="94" curve="180"/>
<wire x1="-1.778" y1="1.778" x2="-5.08" y2="1.016" width="0.1524" layer="94"/>
<wire x1="-5.08" y1="1.016" x2="-5.08" y2="0" width="0.1524" layer="94"/>
<wire x1="-1.778" y1="2.032" x2="-1.778" y2="1.778" width="0.1524" layer="94"/>
<circle x="0" y="2.54" radius="7.62" width="0.8128" layer="94"/>
<text x="0" y="13.335" size="1.778" layer="96">&gt;VALUE</text>
<text x="-10.16" y="13.335" size="1.778" layer="95">&gt;NAME</text>
<text x="0.508" y="-0.127" size="1.778" layer="94">4</text>
<text x="5.969" y="-5.715" size="1.524" layer="94">PE</text>
<text x="-8.636" y="-5.715" size="1.524" layer="94">PE</text>
<text x="1.143" y="-3.302" size="1.778" layer="94">1</text>
<text x="-2.413" y="-3.302" size="1.778" layer="94">2</text>
<text x="3.175" y="1.778" size="1.778" layer="94">3</text>
<text x="-2.032" y="-0.254" size="1.778" layer="94">5</text>
<text x="-4.572" y="1.778" size="1.778" layer="94">6</text>
<text x="1.778" y="4.318" size="1.778" layer="94">7</text>
<text x="0.381" y="6.096" size="1.778" layer="94">8</text>
<text x="-3.302" y="4.318" size="1.778" layer="94">9</text>
<rectangle x1="-1.27" y1="-5.715" x2="1.27" y2="-4.445" layer="94"/>
<pin name="3" x="15.24" y="2.54" visible="off" direction="pas" rot="R180"/>
<pin name="1" x="15.24" y="-2.54" visible="off" direction="pas" rot="R180"/>
<pin name="5" x="-15.24" y="2.54" visible="off" direction="pas"/>
<pin name="4" x="12.7" y="0" visible="off" direction="pas" rot="R180"/>
<pin name="2" x="-15.24" y="-2.54" visible="off" direction="pas"/>
<pin name="PE1" x="12.7" y="-5.08" visible="off" length="short" direction="pwr" swaplevel="1" rot="R180"/>
<pin name="6" x="12.7" y="5.08" visible="off" direction="pas" rot="R180"/>
<pin name="8" x="-12.7" y="5.08" visible="off" direction="pas"/>
<pin name="7" x="-15.24" y="7.62" visible="off" direction="pas"/>
<pin name="PE3" x="-12.7" y="-5.08" visible="off" length="short" direction="pwr" swaplevel="1"/>
<pin name="PE2" x="0" y="-10.16" visible="off" length="middle" direction="pwr" swaplevel="1" rot="R90"/>
<pin name="9" x="-12.7" y="0" visible="off" direction="pas"/>
<polygon width="0.254" layer="94">
<vertex x="3.048" y="-4.318"/>
<vertex x="3.048" y="-2.794"/>
<vertex x="5.588" y="-2.794"/>
</polygon>
<polygon width="0.254" layer="94">
<vertex x="-3.048" y="-4.318"/>
<vertex x="-3.048" y="-2.794"/>
<vertex x="-5.588" y="-2.794"/>
</polygon>
<polygon width="0.254" layer="94">
<vertex x="-4.572" y="8.636"/>
<vertex x="4.572" y="8.636"/>
<vertex x="2.286" y="9.906"/>
<vertex x="-0.254" y="10.16"/>
<vertex x="-2.54" y="9.652"/>
<vertex x="-4.064" y="8.89"/>
</polygon>
</symbol>
</symbols>
<devicesets>
<deviceset name="MINI_DIN_3" prefix="X" uservalue="yes">
<gates>
<gate name="G$1" symbol="M_DIN3" x="0" y="-2.54"/>
</gates>
<devices>
<device name="" package="M_DIN3">
<connects>
<connect gate="G$1" pin="3" pad="3"/>
<connect gate="G$1" pin="5" pad="5"/>
<connect gate="G$1" pin="7" pad="7"/>
<connect gate="G$1" pin="PE1" pad="SH1"/>
<connect gate="G$1" pin="PE2" pad="SH2"/>
<connect gate="G$1" pin="PE3" pad="SH3"/>
</connects>
<technologies>
<technology name=""/>
</technologies>
</device>
</devices>
</deviceset>
<deviceset name="MINI_DIN_4" prefix="X" uservalue="yes">
<gates>
<gate name="G$1" symbol="M_DIN4" x="0" y="-2.54"/>
</gates>
<devices>
<device name="" package="M_DIN4">
<connects>
<connect gate="G$1" pin="3" pad="3"/>
<connect gate="G$1" pin="5" pad="5"/>
<connect gate="G$1" pin="6" pad="6"/>
<connect gate="G$1" pin="8" pad="8"/>
<connect gate="G$1" pin="PE1" pad="SH1"/>
<connect gate="G$1" pin="PE2" pad="SH2"/>
<connect gate="G$1" pin="PE3" pad="SH3"/>
</connects>
<technologies>
<technology name=""/>
</technologies>
</device>
</devices>
</deviceset>
<deviceset name="MINI_DIN_5" prefix="X" uservalue="yes">
<gates>
<gate name="G$1" symbol="M_DIN5" x="0" y="-2.54"/>
</gates>
<devices>
<device name="" package="M_DIN5">
<connects>
<connect gate="G$1" pin="1" pad="1"/>
<connect gate="G$1" pin="3" pad="3"/>
<connect gate="G$1" pin="5" pad="5"/>
<connect gate="G$1" pin="6" pad="6"/>
<connect gate="G$1" pin="8" pad="8"/>
<connect gate="G$1" pin="PE1" pad="SH1"/>
<connect gate="G$1" pin="PE2" pad="SH2"/>
<connect gate="G$1" pin="PE3" pad="SH3"/>
</connects>
<technologies>
<technology name=""/>
</technologies>
</device>
</devices>
</deviceset>
<deviceset name="MINI_DIN_6" prefix="X" uservalue="yes">
<gates>
<gate name="G$1" symbol="M_DIN6" x="0" y="-2.54"/>
</gates>
<devices>
<device name="" package="M_DIN6">
<connects>
<connect gate="G$1" pin="1" pad="1"/>
<connect gate="G$1" pin="2" pad="2"/>
<connect gate="G$1" pin="3" pad="3"/>
<connect gate="G$1" pin="5" pad="5"/>
<connect gate="G$1" pin="6" pad="6"/>
<connect gate="G$1" pin="8" pad="8"/>
<connect gate="G$1" pin="PE1" pad="SH1"/>
<connect gate="G$1" pin="PE2" pad="SH2"/>
<connect gate="G$1" pin="PE3" pad="SH3"/>
</connects>
<technologies>
<technology name=""/>
</technologies>
</device>
</devices>
</deviceset>
<deviceset name="MINI_DIN_7" prefix="X" uservalue="yes">
<gates>
<gate name="G$1" symbol="M_DIN7" x="0" y="0"/>
</gates>
<devices>
<device name="" package="M_DIN7">
<connects>
<connect gate="G$1" pin="1" pad="1"/>
<connect gate="G$1" pin="2" pad="2"/>
<connect gate="G$1" pin="3" pad="3"/>
<connect gate="G$1" pin="5" pad="5"/>
<connect gate="G$1" pin="6" pad="6"/>
<connect gate="G$1" pin="7" pad="7"/>
<connect gate="G$1" pin="8" pad="8"/>
<connect gate="G$1" pin="PE1" pad="SH1"/>
<connect gate="G$1" pin="PE2" pad="SH2"/>
<connect gate="G$1" pin="PE3" pad="SH3"/>
</connects>
<technologies>
<technology name=""/>
</technologies>
</device>
</devices>
</deviceset>
<deviceset name="MINI_DIN_8" prefix="X" uservalue="yes">
<gates>
<gate name="G$1" symbol="M_DIN8" x="0" y="0"/>
</gates>
<devices>
<device name="" package="M_DIN8">
<connects>
<connect gate="G$1" pin="1" pad="1"/>
<connect gate="G$1" pin="2" pad="2"/>
<connect gate="G$1" pin="3" pad="3"/>
<connect gate="G$1" pin="4" pad="4"/>
<connect gate="G$1" pin="5" pad="5"/>
<connect gate="G$1" pin="6" pad="6"/>
<connect gate="G$1" pin="7" pad="7"/>
<connect gate="G$1" pin="8" pad="8"/>
<connect gate="G$1" pin="PE1" pad="SH1"/>
<connect gate="G$1" pin="PE2" pad="SH2"/>
<connect gate="G$1" pin="PE3" pad="SH3"/>
</connects>
<technologies>
<technology name=""/>
</technologies>
</device>
</devices>
</deviceset>
<deviceset name="MINI_DIN_9" prefix="X" uservalue="yes">
<gates>
<gate name="G$1" symbol="M_DIN9" x="0" y="-2.54"/>
</gates>
<devices>
<device name="" package="M_DIN9">
<connects>
<connect gate="G$1" pin="1" pad="1"/>
<connect gate="G$1" pin="2" pad="2"/>
<connect gate="G$1" pin="3" pad="3"/>
<connect gate="G$1" pin="4" pad="4"/>
<connect gate="G$1" pin="5" pad="5"/>
<connect gate="G$1" pin="6" pad="6"/>
<connect gate="G$1" pin="7" pad="7"/>
<connect gate="G$1" pin="8" pad="8"/>
<connect gate="G$1" pin="9" pad="9"/>
<connect gate="G$1" pin="PE1" pad="SH1"/>
<connect gate="G$1" pin="PE2" pad="SH2"/>
<connect gate="G$1" pin="PE3" pad="SH3"/>
</connects>
<technologies>
<technology name=""/>
</technologies>
</device>
</devices>
</deviceset>
</devicesets>
</library>
</drawing>
</eagle>
