<?xml version="1.0" encoding="utf-8"?>
<!DOCTYPE eagle SYSTEM "eagle.dtd">
<eagle version="9.5.2">
<drawing>
<settings>
<setting alwaysvectorfont="no"/>
<setting verticaltext="up"/>
</settings>
<grid distance="50" unitdist="mil" unit="mil" style="lines" multiple="1" display="yes" altdistance="1" altunitdist="mil" altunit="mil"/>
<layers>
<layer number="1" name="Top" color="4" fill="1" visible="yes" active="yes"/>
<layer number="2" name="Route2" color="16" fill="1" visible="no" active="no"/>
<layer number="15" name="Route15" color="23" fill="1" visible="no" active="no"/>
<layer number="16" name="Bottom" color="1" fill="1" visible="yes" active="yes"/>
<layer number="17" name="Pads" color="2" fill="1" visible="yes" active="yes"/>
<layer number="18" name="Vias" color="2" fill="1" visible="yes" active="yes"/>
<layer number="19" name="Unrouted" color="6" fill="1" visible="yes" active="yes"/>
<layer number="20" name="Dimension" color="24" fill="1" visible="yes" active="yes"/>
<layer number="21" name="tPlace" color="7" fill="1" visible="yes" active="yes"/>
<layer number="22" name="bPlace" color="7" fill="1" visible="yes" active="yes"/>
<layer number="23" name="tOrigins" color="15" fill="1" visible="yes" active="yes"/>
<layer number="24" name="bOrigins" color="15" fill="1" visible="yes" active="yes"/>
<layer number="25" name="tNames" color="7" fill="1" visible="yes" active="yes"/>
<layer number="26" name="bNames" color="7" fill="1" visible="yes" active="yes"/>
<layer number="27" name="tValues" color="7" fill="1" visible="yes" active="yes"/>
<layer number="28" name="bValues" color="7" fill="1" visible="yes" active="yes"/>
<layer number="29" name="tStop" color="7" fill="3" visible="no" active="yes"/>
<layer number="30" name="bStop" color="7" fill="6" visible="no" active="yes"/>
<layer number="31" name="tCream" color="7" fill="4" visible="no" active="yes"/>
<layer number="32" name="bCream" color="7" fill="5" visible="no" active="yes"/>
<layer number="33" name="tFinish" color="6" fill="3" visible="no" active="yes"/>
<layer number="34" name="bFinish" color="6" fill="6" visible="no" active="yes"/>
<layer number="35" name="tGlue" color="7" fill="4" visible="no" active="yes"/>
<layer number="36" name="bGlue" color="7" fill="5" visible="no" active="yes"/>
<layer number="37" name="tTest" color="7" fill="1" visible="no" active="yes"/>
<layer number="38" name="bTest" color="7" fill="1" visible="no" active="yes"/>
<layer number="39" name="tKeepout" color="4" fill="11" visible="yes" active="yes"/>
<layer number="40" name="bKeepout" color="1" fill="11" visible="yes" active="yes"/>
<layer number="41" name="tRestrict" color="4" fill="10" visible="yes" active="yes"/>
<layer number="42" name="bRestrict" color="1" fill="10" visible="yes" active="yes"/>
<layer number="43" name="vRestrict" color="2" fill="10" visible="yes" active="yes"/>
<layer number="44" name="Drills" color="7" fill="1" visible="no" active="yes"/>
<layer number="45" name="Holes" color="7" fill="1" visible="yes" active="yes"/>
<layer number="46" name="Milling" color="3" fill="1" visible="no" active="yes"/>
<layer number="47" name="Measures" color="7" fill="1" visible="no" active="yes"/>
<layer number="48" name="Document" color="7" fill="1" visible="yes" active="yes"/>
<layer number="49" name="Reference" color="7" fill="1" visible="yes" active="yes"/>
<layer number="51" name="tDocu" color="7" fill="1" visible="yes" active="yes"/>
<layer number="52" name="bDocu" color="7" fill="1" visible="yes" active="yes"/>
<layer number="88" name="SimResults" color="9" fill="1" visible="no" active="no"/>
<layer number="89" name="SimProbes" color="9" fill="1" visible="no" active="no"/>
<layer number="90" name="Modules" color="5" fill="1" visible="no" active="no"/>
<layer number="91" name="Nets" color="2" fill="1" visible="no" active="no"/>
<layer number="92" name="Busses" color="1" fill="1" visible="no" active="no"/>
<layer number="93" name="Pins" color="2" fill="1" visible="no" active="no"/>
<layer number="94" name="Symbols" color="4" fill="1" visible="no" active="no"/>
<layer number="95" name="Names" color="7" fill="1" visible="no" active="no"/>
<layer number="96" name="Values" color="7" fill="1" visible="no" active="no"/>
<layer number="97" name="Info" color="7" fill="1" visible="no" active="no"/>
<layer number="98" name="Guide" color="6" fill="1" visible="no" active="no"/>
</layers>
<board>
<plain>
<wire x1="0" y1="20.32" x2="0" y2="0" width="0.1524" layer="20"/>
<wire x1="0" y1="0" x2="25.4" y2="0" width="0.1524" layer="20"/>
<wire x1="0" y1="20.32" x2="25.4" y2="20.32" width="0.1524" layer="20"/>
<wire x1="25.4" y1="20.32" x2="25.4" y2="0" width="0.1524" layer="20"/>
<hole x="23.495" y="18.415" drill="2.199640625"/>
<hole x="1.905" y="18.415" drill="2.199640625"/>
<hole x="1.905" y="1.905" drill="2.199640625"/>
<hole x="23.495" y="1.905" drill="2.199640625"/>
<wire x1="20.0152" y1="3.3528" x2="21.2852" y2="3.3528" width="0.1524" layer="21"/>
<wire x1="23.8252" y1="3.3528" x2="25.0952" y2="3.3528" width="0.1524" layer="21"/>
<wire x1="25.0952" y1="3.3528" x2="25.0952" y2="4.6228" width="0.1524" layer="21"/>
<wire x1="25.0952" y1="4.6228" x2="25.0952" y2="5.8928" width="0.1524" layer="21"/>
<wire x1="25.0952" y1="5.8928" x2="23.8252" y2="5.8928" width="0.1524" layer="21"/>
<wire x1="23.8252" y1="5.8928" x2="22.5552" y2="5.8928" width="0.1524" layer="21"/>
<wire x1="22.5552" y1="5.8928" x2="21.2852" y2="5.8928" width="0.1524" layer="21"/>
<wire x1="21.2852" y1="5.8928" x2="20.0152" y2="5.8928" width="0.1524" layer="21"/>
<wire x1="20.0152" y1="5.8928" x2="20.0152" y2="4.6228" width="0.1524" layer="21"/>
<text x="2.54" y="3.81" size="1.016" layer="21" font="vector" rot="R90">YAESU CAT / DATA</text>
<text x="24.8412" y="5.7658" size="1.016" layer="21" font="vector" rot="R180">8</text>
<text x="23.5966" y="5.7658" size="1.016" layer="21" font="vector" rot="R180">6</text>
<text x="21.0566" y="5.7404" size="1.016" layer="21" font="vector" rot="R180">2</text>
<text x="23.5966" y="4.4958" size="1.016" layer="21" font="vector" rot="R180">5</text>
<text x="22.3266" y="4.4704" size="1.016" layer="21" font="vector" rot="R180">3</text>
<text x="21.0312" y="4.4704" size="1.016" layer="21" font="vector" rot="R180">1</text>
<wire x1="20.0152" y1="4.6228" x2="20.0152" y2="3.3528" width="0.1524" layer="21"/>
<wire x1="20.0152" y1="4.6228" x2="25.0952" y2="4.6228" width="0.1524" layer="21"/>
<wire x1="23.8252" y1="5.8928" x2="23.8252" y2="3.3528" width="0.1524" layer="21"/>
<wire x1="23.8252" y1="3.3528" x2="22.5552" y2="3.3528" width="0.1524" layer="21"/>
<wire x1="22.5552" y1="5.8928" x2="22.5552" y2="3.3528" width="0.1524" layer="21"/>
<wire x1="22.5552" y1="3.3528" x2="21.2852" y2="3.3528" width="0.1524" layer="21"/>
<wire x1="21.2852" y1="3.3528" x2="21.2852" y2="5.8928" width="0.1524" layer="21"/>
<wire x1="20.0152" y1="8.4328" x2="21.2852" y2="8.4328" width="0.1524" layer="21"/>
<wire x1="23.8252" y1="8.4328" x2="25.0952" y2="8.4328" width="0.1524" layer="21"/>
<wire x1="25.0952" y1="8.4328" x2="25.0952" y2="9.7028" width="0.1524" layer="21"/>
<wire x1="25.0952" y1="9.7028" x2="25.0952" y2="10.9728" width="0.1524" layer="21"/>
<wire x1="25.0952" y1="10.9728" x2="23.8252" y2="10.9728" width="0.1524" layer="21"/>
<wire x1="23.8252" y1="10.9728" x2="22.5552" y2="10.9728" width="0.1524" layer="21"/>
<wire x1="22.5552" y1="10.9728" x2="21.2852" y2="10.9728" width="0.1524" layer="21"/>
<wire x1="21.2852" y1="10.9728" x2="20.0152" y2="10.9728" width="0.1524" layer="21"/>
<wire x1="20.0152" y1="10.9728" x2="20.0152" y2="9.7028" width="0.1524" layer="21"/>
<text x="24.8412" y="10.8458" size="1.016" layer="21" font="vector" rot="R180">8</text>
<text x="23.5966" y="10.8458" size="1.016" layer="21" font="vector" rot="R180">6</text>
<text x="22.3266" y="10.8458" size="1.016" layer="21" font="vector" rot="R180">4</text>
<text x="21.0566" y="10.8204" size="1.016" layer="21" font="vector" rot="R180">2</text>
<text x="24.8666" y="9.5758" size="1.016" layer="21" font="vector" rot="R180">7</text>
<text x="23.5966" y="9.5758" size="1.016" layer="21" font="vector" rot="R180">5</text>
<text x="22.3266" y="9.5504" size="1.016" layer="21" font="vector" rot="R180">3</text>
<text x="21.0312" y="9.5504" size="1.016" layer="21" font="vector" rot="R180">1</text>
<wire x1="20.0152" y1="9.7028" x2="20.0152" y2="8.4328" width="0.1524" layer="21"/>
<wire x1="20.0152" y1="9.7028" x2="25.0952" y2="9.7028" width="0.1524" layer="21"/>
<wire x1="23.8252" y1="10.9728" x2="23.8252" y2="8.4328" width="0.1524" layer="21"/>
<wire x1="23.8252" y1="8.4328" x2="22.5552" y2="8.4328" width="0.1524" layer="21"/>
<wire x1="22.5552" y1="10.9728" x2="22.5552" y2="8.4328" width="0.1524" layer="21"/>
<wire x1="22.5552" y1="8.4328" x2="21.2852" y2="8.4328" width="0.1524" layer="21"/>
<wire x1="21.2852" y1="8.4328" x2="21.2852" y2="10.9728" width="0.1524" layer="21"/>
<text x="19.939" y="11.43" size="0.8128" layer="21">CAT 8P</text>
<text x="19.939" y="6.2738" size="0.8128" layer="21">DATA 6P</text>
<rectangle x1="7.5438" y1="0.6604" x2="8.3058" y2="1.3716" layer="21"/>
<rectangle x1="19.9644" y1="3.302" x2="20.32" y2="3.6576" layer="21"/>
<rectangle x1="19.9898" y1="8.4074" x2="20.32" y2="8.763" layer="21"/>
<text x="3.81" y="8.89" size="0.8128" layer="21" font="vector" rot="R90">DK8DE</text>
</plain>
<libraries>
<library name="con-lstb">
<description>&lt;b&gt;Pin Headers&lt;/b&gt;&lt;p&gt;
Naming:&lt;p&gt;
MA = male&lt;p&gt;
# contacts - # rows&lt;p&gt;
W = angled&lt;p&gt;
&lt;author&gt;Created by librarian@cadsoft.de&lt;/author&gt;</description>
<packages>
<package name="MA04-2">
<description>&lt;b&gt;PIN HEADER&lt;/b&gt;</description>
<wire x1="-4.445" y1="2.54" x2="-3.175" y2="2.54" width="0.1524" layer="21"/>
<wire x1="-3.175" y1="2.54" x2="-2.54" y2="1.905" width="0.1524" layer="21"/>
<wire x1="-2.54" y1="1.905" x2="-1.905" y2="2.54" width="0.1524" layer="21"/>
<wire x1="-1.905" y1="2.54" x2="-0.635" y2="2.54" width="0.1524" layer="21"/>
<wire x1="-0.635" y1="2.54" x2="0" y2="1.905" width="0.1524" layer="21"/>
<wire x1="-4.445" y1="2.54" x2="-5.08" y2="1.905" width="0.1524" layer="21"/>
<wire x1="0" y1="1.905" x2="0.635" y2="2.54" width="0.1524" layer="21"/>
<wire x1="0.635" y1="2.54" x2="1.905" y2="2.54" width="0.1524" layer="21"/>
<wire x1="1.905" y1="2.54" x2="2.54" y2="1.905" width="0.1524" layer="21"/>
<wire x1="3.175" y1="2.54" x2="4.445" y2="2.54" width="0.1524" layer="21"/>
<wire x1="3.175" y1="2.54" x2="2.54" y2="1.905" width="0.1524" layer="21"/>
<wire x1="4.445" y1="2.54" x2="5.08" y2="1.905" width="0.1524" layer="21"/>
<wire x1="5.08" y1="1.905" x2="5.08" y2="-1.905" width="0.1524" layer="21"/>
<wire x1="-2.54" y1="-1.905" x2="-3.175" y2="-2.54" width="0.1524" layer="21"/>
<wire x1="0" y1="-1.905" x2="-0.635" y2="-2.54" width="0.1524" layer="21"/>
<wire x1="-0.635" y1="-2.54" x2="-1.905" y2="-2.54" width="0.1524" layer="21"/>
<wire x1="-1.905" y1="-2.54" x2="-2.54" y2="-1.905" width="0.1524" layer="21"/>
<wire x1="-5.08" y1="1.905" x2="-5.08" y2="-1.905" width="0.1524" layer="21"/>
<wire x1="-5.08" y1="-1.905" x2="-4.445" y2="-2.54" width="0.1524" layer="21"/>
<wire x1="-3.175" y1="-2.54" x2="-4.445" y2="-2.54" width="0.1524" layer="21"/>
<wire x1="2.54" y1="-1.905" x2="1.905" y2="-2.54" width="0.1524" layer="21"/>
<wire x1="1.905" y1="-2.54" x2="0.635" y2="-2.54" width="0.1524" layer="21"/>
<wire x1="0.635" y1="-2.54" x2="0" y2="-1.905" width="0.1524" layer="21"/>
<wire x1="2.54" y1="-1.905" x2="3.175" y2="-2.54" width="0.1524" layer="21"/>
<wire x1="4.445" y1="-2.54" x2="3.175" y2="-2.54" width="0.1524" layer="21"/>
<wire x1="5.08" y1="-1.905" x2="4.445" y2="-2.54" width="0.1524" layer="21"/>
<pad name="1" x="-3.81" y="-1.27" drill="1.016" shape="octagon"/>
<pad name="3" x="-1.27" y="-1.27" drill="1.016" shape="octagon"/>
<pad name="5" x="1.27" y="-1.27" drill="1.016" shape="octagon"/>
<pad name="7" x="3.81" y="-1.27" drill="1.016" shape="octagon"/>
<pad name="2" x="-3.81" y="1.27" drill="1.016" shape="octagon"/>
<pad name="4" x="-1.27" y="1.27" drill="1.016" shape="octagon"/>
<pad name="6" x="1.27" y="1.27" drill="1.016" shape="octagon"/>
<pad name="8" x="3.81" y="1.27" drill="1.016" shape="octagon"/>
<text x="-4.318" y="-4.191" size="1.27" layer="21" ratio="10">1</text>
<text x="-5.08" y="2.921" size="1.27" layer="25" ratio="10">&gt;NAME</text>
<text x="0" y="-4.191" size="1.27" layer="27" ratio="10">&gt;VALUE</text>
<text x="3.81" y="2.921" size="1.27" layer="21" ratio="10">8</text>
<rectangle x1="-1.524" y1="-1.524" x2="-1.016" y2="-1.016" layer="51"/>
<rectangle x1="-4.064" y1="-1.524" x2="-3.556" y2="-1.016" layer="51"/>
<rectangle x1="1.016" y1="-1.524" x2="1.524" y2="-1.016" layer="51"/>
<rectangle x1="3.556" y1="-1.524" x2="4.064" y2="-1.016" layer="51"/>
<rectangle x1="-4.064" y1="1.016" x2="-3.556" y2="1.524" layer="51"/>
<rectangle x1="-1.524" y1="1.016" x2="-1.016" y2="1.524" layer="51"/>
<rectangle x1="1.016" y1="1.016" x2="1.524" y2="1.524" layer="51"/>
<rectangle x1="3.556" y1="1.016" x2="4.064" y2="1.524" layer="51"/>
</package>
</packages>
</library>
<library name="mini_din">
<packages>
<package name="M_DIN8">
<wire x1="7" y1="4.7" x2="-7" y2="4.7" width="0.127" layer="21"/>
<wire x1="-7" y1="4.7" x2="-7" y2="0.2" width="0.127" layer="21"/>
<wire x1="-7" y1="0.2" x2="-7" y2="-8.1" width="0.127" layer="21"/>
<wire x1="-7" y1="-8.1" x2="7" y2="-8.1008" width="0.127" layer="21"/>
<wire x1="7" y1="-8.1008" x2="7" y2="-1.8" width="0.127" layer="21"/>
<wire x1="7" y1="-1.8" x2="7" y2="0.2" width="0.127" layer="21"/>
<wire x1="7" y1="0.2" x2="7" y2="4.7" width="0.127" layer="21"/>
<wire x1="7" y1="0.2" x2="6.7" y2="0.2" width="0.127" layer="21"/>
<wire x1="6.7" y1="0.2" x2="6.7" y2="-1.8" width="0.127" layer="21"/>
<wire x1="6.7" y1="-1.8" x2="7" y2="-1.8" width="0.127" layer="21"/>
<wire x1="-7" y1="0.2" x2="-6.7" y2="0.2" width="0.127" layer="21"/>
<wire x1="-6.7" y1="0.2" x2="-6.7" y2="-1.8" width="0.127" layer="21"/>
<wire x1="-6.7" y1="-1.8" x2="-6.95" y2="-1.8" width="0.127" layer="21"/>
<pad name="SH1" x="6.8" y="-0.8" drill="2.3" diameter="3.5"/>
<pad name="SH3" x="-6.75" y="-0.8" drill="2.3" diameter="3.5"/>
<pad name="SH2" x="0" y="0" drill="2.3" diameter="3.5"/>
<pad name="2" x="1.3" y="-3.8" drill="0.9" diameter="1.4224" shape="octagon"/>
<pad name="1" x="-1.3" y="-3.8" drill="0.9" diameter="1.4224" shape="octagon"/>
<pad name="3" x="-3.4" y="-3.8" drill="0.9" diameter="1.4224" shape="octagon"/>
<pad name="5" x="3.4" y="-3.8" drill="0.9" diameter="1.4224" shape="octagon"/>
<pad name="8" x="3.4" y="-6.3" drill="0.9" diameter="1.4224" shape="octagon"/>
<pad name="7" x="0.9" y="-6.3" drill="0.9" diameter="1.4224" shape="octagon"/>
<pad name="4" x="-1.3" y="-6.3" drill="0.9" diameter="1.4224" shape="octagon"/>
<pad name="6" x="-3.4" y="-6.25" drill="0.9" diameter="1.4224" shape="octagon"/>
<text x="-2.286" y="-5.08" size="0.8128" layer="21">1</text>
<text x="0.092" y="-5.08" size="0.8128" layer="21">2</text>
<text x="-4.58" y="-5.08" size="0.8128" layer="21">3</text>
<text x="-2.498" y="-7.62" size="0.8128" layer="21">4</text>
<text x="2.28" y="-5.12" size="0.8128" layer="21">5</text>
<text x="-4.656" y="-7.58" size="0.8128" layer="21">6</text>
<text x="-0.28" y="-7.62" size="0.8128" layer="21">7</text>
<text x="2.112" y="-7.62" size="0.8128" layer="21">8</text>
<text x="-6.35" y="5.08" size="1.778" layer="25" ratio="10">&gt;NAME</text>
<text x="-6.35" y="2.54" size="1.778" layer="27" ratio="10">&gt;VALUE</text>
</package>
</packages>
</library>
</libraries>
<attributes>
</attributes>
<variantdefs>
</variantdefs>
<classes>
<class number="0" name="default" width="0" drill="0">
</class>
</classes>
<designrules name="default">
<description language="de">&lt;b&gt;EAGLE Design Rules&lt;/b&gt;
&lt;p&gt;
Die Standard-Design-Rules sind so gewählt, dass sie für 
die meisten Anwendungen passen. Sollte ihre Platine 
besondere Anforderungen haben, treffen Sie die erforderlichen
Einstellungen hier und speichern die Design Rules unter 
einem neuen Namen ab.</description>
<description language="en">&lt;b&gt;EAGLE Design Rules&lt;/b&gt;
&lt;p&gt;
The default Design Rules have been set to cover
a wide range of applications. Your particular design
may have different requirements, so please make the
necessary adjustments and save your customized
design rules under a new name.</description>
<param name="layerSetup" value="(1*16)"/>
<param name="mtCopper" value="0.035mm 0.035mm 0.035mm 0.035mm 0.035mm 0.035mm 0.035mm 0.035mm 0.035mm 0.035mm 0.035mm 0.035mm 0.035mm 0.035mm 0.035mm 0.035mm"/>
<param name="mtIsolate" value="1.5mm 0.15mm 0.2mm 0.15mm 0.2mm 0.15mm 0.2mm 0.15mm 0.2mm 0.15mm 0.2mm 0.15mm 0.2mm 0.15mm 0.2mm"/>
<param name="mdWireWire" value="6mil"/>
<param name="mdWirePad" value="6mil"/>
<param name="mdWireVia" value="6mil"/>
<param name="mdPadPad" value="6mil"/>
<param name="mdPadVia" value="6mil"/>
<param name="mdViaVia" value="6mil"/>
<param name="mdSmdPad" value="6mil"/>
<param name="mdSmdVia" value="6mil"/>
<param name="mdSmdSmd" value="6mil"/>
<param name="mdViaViaSameLayer" value="6mil"/>
<param name="mnLayersViaInSmd" value="2"/>
<param name="mdCopperDimension" value="40mil"/>
<param name="mdDrill" value="6mil"/>
<param name="mdSmdStop" value="0mil"/>
<param name="msWidth" value="6mil"/>
<param name="msDrill" value="0.35mm"/>
<param name="msMicroVia" value="9.99mm"/>
<param name="msBlindViaRatio" value="0.5"/>
<param name="rvPadTop" value="0.25"/>
<param name="rvPadInner" value="0.25"/>
<param name="rvPadBottom" value="0.25"/>
<param name="rvViaOuter" value="0.25"/>
<param name="rvViaInner" value="0.25"/>
<param name="rvMicroViaOuter" value="0.25"/>
<param name="rvMicroViaInner" value="0.25"/>
<param name="rlMinPadTop" value="10mil"/>
<param name="rlMaxPadTop" value="20mil"/>
<param name="rlMinPadInner" value="10mil"/>
<param name="rlMaxPadInner" value="20mil"/>
<param name="rlMinPadBottom" value="10mil"/>
<param name="rlMaxPadBottom" value="20mil"/>
<param name="rlMinViaOuter" value="8mil"/>
<param name="rlMaxViaOuter" value="20mil"/>
<param name="rlMinViaInner" value="8mil"/>
<param name="rlMaxViaInner" value="20mil"/>
<param name="rlMinMicroViaOuter" value="4mil"/>
<param name="rlMaxMicroViaOuter" value="20mil"/>
<param name="rlMinMicroViaInner" value="4mil"/>
<param name="rlMaxMicroViaInner" value="20mil"/>
<param name="psTop" value="-1"/>
<param name="psBottom" value="-1"/>
<param name="psFirst" value="-1"/>
<param name="psElongationLong" value="100"/>
<param name="psElongationOffset" value="100"/>
<param name="mvStopFrame" value="1"/>
<param name="mvCreamFrame" value="0"/>
<param name="mlMinStopFrame" value="4mil"/>
<param name="mlMaxStopFrame" value="4mil"/>
<param name="mlMinCreamFrame" value="0mil"/>
<param name="mlMaxCreamFrame" value="0mil"/>
<param name="mlViaStopLimit" value="0mil"/>
<param name="srRoundness" value="0"/>
<param name="srMinRoundness" value="0mil"/>
<param name="srMaxRoundness" value="0mil"/>
<param name="slThermalIsolate" value="10mil"/>
<param name="slThermalsForVias" value="0"/>
<param name="dpMaxLengthDifference" value="10mm"/>
<param name="dpGapFactor" value="2.5"/>
<param name="checkAngle" value="0"/>
<param name="checkFont" value="1"/>
<param name="checkRestrict" value="1"/>
<param name="checkStop" value="0"/>
<param name="checkValues" value="0"/>
<param name="checkNames" value="1"/>
<param name="checkWireStubs" value="1"/>
<param name="checkPolygonWidth" value="0"/>
<param name="useDiameter" value="13"/>
<param name="maxErrors" value="50"/>
</designrules>
<autorouter>
<pass name="Default">
<param name="RoutingGrid" value="50mil"/>
<param name="AutoGrid" value="1"/>
<param name="Efforts" value="0"/>
<param name="TopRouterVariant" value="1"/>
<param name="tpViaShape" value="round"/>
<param name="PrefDir.1" value="a"/>
<param name="PrefDir.2" value="0"/>
<param name="PrefDir.3" value="0"/>
<param name="PrefDir.4" value="0"/>
<param name="PrefDir.5" value="0"/>
<param name="PrefDir.6" value="0"/>
<param name="PrefDir.7" value="0"/>
<param name="PrefDir.8" value="0"/>
<param name="PrefDir.9" value="0"/>
<param name="PrefDir.10" value="0"/>
<param name="PrefDir.11" value="0"/>
<param name="PrefDir.12" value="0"/>
<param name="PrefDir.13" value="0"/>
<param name="PrefDir.14" value="0"/>
<param name="PrefDir.15" value="0"/>
<param name="PrefDir.16" value="a"/>
<param name="cfVia" value="8"/>
<param name="cfNonPref" value="5"/>
<param name="cfChangeDir" value="2"/>
<param name="cfOrthStep" value="2"/>
<param name="cfDiagStep" value="3"/>
<param name="cfExtdStep" value="0"/>
<param name="cfBonusStep" value="1"/>
<param name="cfMalusStep" value="1"/>
<param name="cfPadImpact" value="4"/>
<param name="cfSmdImpact" value="4"/>
<param name="cfBusImpact" value="0"/>
<param name="cfHugging" value="3"/>
<param name="cfAvoid" value="4"/>
<param name="cfPolygon" value="10"/>
<param name="cfBase.1" value="0"/>
<param name="cfBase.2" value="1"/>
<param name="cfBase.3" value="1"/>
<param name="cfBase.4" value="1"/>
<param name="cfBase.5" value="1"/>
<param name="cfBase.6" value="1"/>
<param name="cfBase.7" value="1"/>
<param name="cfBase.8" value="1"/>
<param name="cfBase.9" value="1"/>
<param name="cfBase.10" value="1"/>
<param name="cfBase.11" value="1"/>
<param name="cfBase.12" value="1"/>
<param name="cfBase.13" value="1"/>
<param name="cfBase.14" value="1"/>
<param name="cfBase.15" value="1"/>
<param name="cfBase.16" value="0"/>
<param name="mnVias" value="20"/>
<param name="mnSegments" value="9999"/>
<param name="mnExtdSteps" value="9999"/>
<param name="mnRipupLevel" value="10"/>
<param name="mnRipupSteps" value="100"/>
<param name="mnRipupTotal" value="100"/>
</pass>
<pass name="Follow-me" refer="Default" active="yes">
</pass>
<pass name="Busses" refer="Default" active="yes">
<param name="cfNonPref" value="4"/>
<param name="cfBusImpact" value="4"/>
<param name="cfHugging" value="0"/>
<param name="mnVias" value="0"/>
</pass>
<pass name="Route" refer="Default" active="yes">
</pass>
<pass name="Optimize1" refer="Default" active="yes">
<param name="cfVia" value="99"/>
<param name="cfExtdStep" value="10"/>
<param name="cfHugging" value="1"/>
<param name="mnExtdSteps" value="1"/>
<param name="mnRipupLevel" value="0"/>
</pass>
<pass name="Optimize2" refer="Optimize1" active="yes">
<param name="cfNonPref" value="0"/>
<param name="cfChangeDir" value="6"/>
<param name="cfExtdStep" value="0"/>
<param name="cfBonusStep" value="2"/>
<param name="cfMalusStep" value="2"/>
<param name="cfPadImpact" value="2"/>
<param name="cfSmdImpact" value="2"/>
<param name="cfHugging" value="0"/>
</pass>
<pass name="Optimize3" refer="Optimize2" active="yes">
<param name="cfChangeDir" value="8"/>
<param name="cfPadImpact" value="0"/>
<param name="cfSmdImpact" value="0"/>
</pass>
<pass name="Optimize4" refer="Optimize3" active="yes">
<param name="cfChangeDir" value="25"/>
</pass>
</autorouter>
<elements>
<element name="SV2" library="con-lstb" package="MA04-2" value="" x="12.7" y="3.275" smashed="yes">
<attribute name="MF" value="" x="12.7" y="3.275" size="1.778" layer="27" display="off"/>
<attribute name="MPN" value="" x="12.7" y="3.275" size="1.778" layer="27" display="off"/>
<attribute name="OC_FARNELL" value="unknown" x="12.7" y="3.275" size="1.778" layer="27" display="off"/>
<attribute name="OC_NEWARK" value="unknown" x="12.7" y="3.275" size="1.778" layer="27" display="off"/>
<attribute name="VALUE" x="12.7" y="-0.916" size="1.27" layer="27" ratio="10"/>
</element>
<element name="MINI-DIN-6/8P" library="mini_din" package="M_DIN8" value="CAT" x="12.7" y="15.24" smashed="yes">
<attribute name="NAME" x="17.78" y="19.05" size="1.016" layer="25" font="vector" ratio="10" rot="R180"/>
<attribute name="VALUE" x="7.62" y="16.51" size="1.016" layer="27" ratio="10"/>
</element>
</elements>
<signals>
<signal name="N$2">
<contactref element="SV2" pad="3"/>
<contactref element="MINI-DIN-6/8P" pad="3"/>
<wire x1="9.3" y1="11.44" x2="9.3" y2="10.31908125" width="0.1524" layer="1"/>
<wire x1="9.3" y1="10.31908125" x2="10.2398" y2="9.37928125" width="0.1524" layer="1"/>
<wire x1="10.2398" y1="3.1952" x2="11.43" y2="2.005" width="0.1524" layer="1"/>
<wire x1="10.2398" y1="9.37928125" x2="10.2398" y2="3.1952" width="0.1524" layer="1"/>
</signal>
<signal name="N$3">
<contactref element="SV2" pad="1"/>
<contactref element="MINI-DIN-6/8P" pad="1"/>
<wire x1="8.91071875" y1="9.9298" x2="8.3602" y2="9.37928125" width="0.1524" layer="16"/>
<wire x1="9.8806" y1="4.955325" x2="9.8806" y2="4.134675" width="0.1524" layer="16"/>
<wire x1="11.4" y1="11.44" x2="9.8898" y2="9.9298" width="0.1524" layer="16"/>
<wire x1="9.1948" y1="7.74625625" x2="9.1948" y2="5.641125" width="0.1524" layer="16"/>
<wire x1="8.89" y1="3.144075" x2="8.89" y2="2.005" width="0.1524" layer="16"/>
<wire x1="9.8898" y1="9.9298" x2="8.91071875" y2="9.9298" width="0.1524" layer="16"/>
<wire x1="9.1948" y1="5.641125" x2="9.8806" y2="4.955325" width="0.1524" layer="16"/>
<wire x1="9.8806" y1="4.134675" x2="8.89" y2="3.144075" width="0.1524" layer="16"/>
<wire x1="8.3602" y1="9.37928125" x2="8.3602" y2="8.58085625" width="0.1524" layer="16"/>
<wire x1="8.3602" y1="8.58085625" x2="9.1948" y2="7.74625625" width="0.1524" layer="16"/>
</signal>
<signal name="N$4">
<contactref element="SV2" pad="5"/>
<contactref element="MINI-DIN-6/8P" pad="5"/>
<wire x1="16.1" y1="10.26908125" x2="16.1" y2="11.44" width="0.1524" layer="1"/>
<wire x1="15.1602" y1="9.32928125" x2="16.1" y2="10.26908125" width="0.1524" layer="1"/>
<wire x1="13.97" y1="2.005" x2="15.1602" y2="3.1952" width="0.1524" layer="1"/>
<wire x1="15.1602" y1="3.1952" x2="15.1602" y2="9.32928125" width="0.1524" layer="1"/>
</signal>
<signal name="N$5">
<contactref element="SV2" pad="2"/>
<contactref element="MINI-DIN-6/8P" pad="2"/>
<wire x1="8.89" y1="4.545" x2="8.89" y2="7.62" width="0.1524" layer="16"/>
<wire x1="8.89" y1="7.62" x2="7.62" y2="8.89" width="0.1524" layer="16"/>
<wire x1="7.62" y1="11.08908125" x2="9.00231875" y2="12.4714" width="0.1524" layer="16"/>
<wire x1="12.9686" y1="12.4714" x2="14" y2="11.44" width="0.1524" layer="16"/>
<wire x1="7.62" y1="8.89" x2="7.62" y2="11.08908125" width="0.1524" layer="16"/>
<wire x1="9.00231875" y1="12.4714" x2="12.9686" y2="12.4714" width="0.1524" layer="16"/>
</signal>
<signal name="N$8">
<contactref element="SV2" pad="6"/>
<contactref element="MINI-DIN-6/8P" pad="6"/>
<wire x1="9.3" y1="8.99" x2="9.8552" y2="8.4348" width="0.1524" layer="16"/>
<wire x1="9.8552" y1="8.4348" x2="9.8552" y2="6.604" width="0.1524" layer="16"/>
<wire x1="9.8552" y1="6.604" x2="10.2362" y2="6.223" width="0.1524" layer="16"/>
<wire x1="10.2362" y1="6.223" x2="13.208" y2="6.223" width="0.1524" layer="16"/>
<wire x1="13.208" y1="6.223" x2="13.97" y2="5.461" width="0.1524" layer="16"/>
<wire x1="13.97" y1="5.461" x2="13.97" y2="4.545" width="0.1524" layer="16"/>
</signal>
<signal name="N$9">
<contactref element="SV2" pad="8"/>
<contactref element="MINI-DIN-6/8P" pad="8"/>
<wire x1="16.51" y1="4.545" x2="16.1" y2="4.955" width="0.1524" layer="1"/>
<wire x1="16.1" y1="4.955" x2="16.1" y2="8.94" width="0.1524" layer="1"/>
</signal>
<signal name="N$1">
<contactref element="SV2" pad="4"/>
<contactref element="MINI-DIN-6/8P" pad="4"/>
<wire x1="11.4" y1="8.94" x2="11.4" y2="4.575" width="0.1524" layer="1"/>
<wire x1="11.4" y1="4.575" x2="11.43" y2="4.545" width="0.1524" layer="1"/>
</signal>
<signal name="N$13">
<contactref element="SV2" pad="7"/>
<contactref element="MINI-DIN-6/8P" pad="7"/>
<wire x1="16.51" y1="2.005" x2="16.51" y2="3.144075" width="0.1524" layer="16"/>
<wire x1="16.51" y1="3.144075" x2="15.5194" y2="4.134675" width="0.1524" layer="16"/>
<wire x1="15.5194" y1="7.0206" x2="13.6" y2="8.94" width="0.1524" layer="16"/>
<wire x1="15.5194" y1="4.134675" x2="15.5194" y2="7.0206" width="0.1524" layer="16"/>
</signal>
<signal name="GND">
<contactref element="MINI-DIN-6/8P" pad="SH3"/>
<contactref element="MINI-DIN-6/8P" pad="SH2"/>
<contactref element="MINI-DIN-6/8P" pad="SH1"/>
<polygon width="0.1524" layer="16" orphans="yes">
<vertex x="0" y="20.32"/>
<vertex x="25.4" y="20.32"/>
<vertex x="25.4" y="0"/>
<vertex x="0" y="0"/>
</polygon>
<polygon width="0.1524" layer="1" orphans="yes">
<vertex x="0" y="20.32"/>
<vertex x="25.4" y="20.32"/>
<vertex x="25.4" y="0"/>
<vertex x="0" y="0"/>
</polygon>
</signal>
</signals>
<mfgpreviewcolors>
<mfgpreviewcolor name="soldermaskcolor" color="0xC8008000"/>
<mfgpreviewcolor name="silkscreencolor" color="0xFFFEFEFE"/>
<mfgpreviewcolor name="backgroundcolor" color="0xFF282828"/>
<mfgpreviewcolor name="coppercolor" color="0xFFFFBF00"/>
<mfgpreviewcolor name="substratecolor" color="0xFF786E46"/>
</mfgpreviewcolors>
</board>
</drawing>
</eagle>
